date,pm25,pm10,o3,no2,so2,co
2021/12/1,53,14,,16,,6
2021/12/2,33,20,,18,,6
2021/12/3,46,27,,21,,8
2021/12/4,65,31,,12,,7
2021/12/5,83,24,,8,,7
2021/12/6,72,21,,12,,6
2021/12/7,62,24,,13,,6
2021/12/8,66,19,,10,,6
2021/12/9,62,29,,17,,10
2021/12/10,79,45,,22,,16
2021/12/11,114,51,,22,,13
2021/12/12,134,47,,28,,13
2021/12/13,119,39,,22,,10
2021/12/14,103,33,,20,,8
2021/12/15,88,19,,17,,4
2021/12/16,58,20,,20,,5
2021/12/17,46,10,,13,,3
2021/12/18,34,,,,,
2021/11/1,72,37,,17,,11
2021/11/2,89,26,,22,,12
2021/11/3,66,16,,15,,10
2021/11/4,45,16,,15,,10
2021/11/5,37,19,,13,,11
2021/11/6,51,18,,12,,11
2021/11/7,53,11,,16,,11
2021/11/8,41,20,,17,,12
2021/11/9,53,38,,20,,14
2021/11/10,83,47,,19,,14
2021/11/11,93,47,,16,,10
2021/11/12,107,35,,11,,3
2021/11/13,88,48,,13,,5
2021/11/14,119,27,,10,,3
2021/11/15,74,41,,18,,6
2021/11/16,95,47,,16,,7
2021/11/17,102,21,,19,,5
2021/11/18,60,9,,11,,4
2021/11/19,36,14,,12,,4
2021/11/20,36,20,,11,,5
2021/11/21,58,25,,23,,7
2021/11/22,56,22,,17,,6
2021/11/23,64,20,,22,,7
2021/11/24,63,36,,22,,8
2021/11/25,79,36,,20,,7
2021/11/26,83,21,,18,,7
2021/11/27,60,36,,14,,8
2021/11/28,92,13,,15,,7
2021/11/29,52,11,,17,,6
2021/11/30,42,16,,19,,7
2021/10/1,64,23,,13,,7
2021/10/2,59,24,,8,,6
2021/10/3,64,24,,15,,6
2021/10/4,56,31,,10,,6
2021/10/5,59,30,,12,,5
2021/10/6,56,31,,11,,5
2021/10/7,56,30,,15,,6
2021/10/8,55,26,,17,,7
2021/10/9,60,32,,14,,7
2021/10/10,78,61,,40,,13
2021/10/11,86,38,,23,,10
2021/10/12,66,30,,21,,9
2021/10/13,58,31,,22,,10
2021/10/14,61,20,,17,,9
2021/10/15,51,31,,17,,9
2021/10/16,53,36,,22,,10
2021/10/17,65,33,,22,,9
2021/10/18,59,22,,21,,10
2021/10/19,56,21,,21,,9
2021/10/20,51,36,,18,,9
2021/10/21,53,17,,13,,8
2021/10/22,32,12,,13,,8
2021/10/23,33,27,,15,,11
2021/10/24,63,27,,19,,11
2021/10/25,66,40,,27,,12
2021/10/26,73,32,,23,,11
2021/10/27,65,35,,26,,11
2021/10/28,67,45,,25,,12
2021/10/29,97,39,,20,,11
2021/10/30,84,31,,20,,10
2021/10/31,70,29,,11,,10
2021/9/1,32,27,,23,,7
2021/9/2,39,32,,23,,7
2021/9/3,48,20,,17,,6
2021/9/4,30,14,,13,,5
2021/9/5,26,30,,25,,8
2021/9/6,43,40,,28,,8
2021/9/7,61,51,,39,,10
2021/9/8,84,44,,33,,8
2021/9/9,75,52,,37,,9
2021/9/10,67,49,,36,,10
2021/9/11,75,40,,23,,8
2021/9/12,75,41,,25,,8
2021/9/13,64,36,,30,,9
2021/9/14,57,36,,25,,6
2021/9/15,68,35,,21,,6
2021/9/16,78,30,,20,,6
2021/9/17,67,12,,12,,5
2021/9/18,35,15,,10,,5
2021/9/19,33,21,,19,,6
2021/9/20,34,32,,20,,6
2021/9/21,52,26,,23,,7
2021/9/22,47,33,,19,,6
2021/9/23,65,19,,14,,5
2021/9/24,37,21,,14,,6
2021/9/25,50,19,,19,,7
2021/9/26,48,14,,11,,5
2021/9/27,36,12,,10,,5
2021/9/28,34,23,,9,,5
2021/9/29,51,27,,22,,10
2021/9/30,61,24,,17,,7
2021/8/1,45,23,,15,,4
2021/8/2,46,28,,24,,5
2021/8/3,41,18,,30,,7
2021/8/4,49,16,,13,,4
2021/8/5,48,4,,15,,4
2021/8/6,14,20,,17,,4
2021/8/7,34,19,,17,,6
2021/8/8,44,30,,26,,6
2021/8/9,43,21,,26,,6
2021/8/10,43,25,,20,,5
2021/8/11,47,32,,27,,6
2021/8/12,52,38,,33,,6
2021/8/13,58,47,,25,,6
2021/8/14,72,36,,23,,6
2021/8/15,55,64,,25,,6
2021/8/16,62,21,,15,,4
2021/8/17,44,28,,20,,5
2021/8/18,45,31,,22,,6
2021/8/19,45,29,,24,,7
2021/8/20,52,26,,18,,6
2021/8/21,52,19,,14,,5
2021/8/22,46,16,,9,,4
2021/8/23,44,18,,18,,6
2021/8/24,32,29,,23,,7
2021/8/25,45,15,,22,,6
2021/8/26,43,24,,23,,8
2021/8/27,59,30,,21,,7
2021/8/28,60,36,,22,,8
2021/8/29,73,31,,21,,7
2021/8/30,71,16,,16,,6
2021/8/31,39,20,,19,,7
2021/7/1,50,28,,15,,12
2021/7/2,54,18,,12,,12
2021/7/3,49,27,,15,,14
2021/7/4,62,31,,23,,15
2021/7/5,59,38,,28,,13
2021/7/6,63,37,,16,,12
2021/7/7,75,41,,21,,15
2021/7/8,78,32,,13,,13
2021/7/9,59,29,,15,,15
2021/7/10,49,20,,10,,13
2021/7/11,46,35,,17,,14
2021/7/12,59,23,,19,,13
2021/7/13,56,51,,18,,12
2021/7/14,72,28,,23,,14
2021/7/15,49,25,,28,,10
2021/7/16,52,38,,20,,5
2021/7/17,59,29,,15,,4
2021/7/18,53,38,,22,,4
2021/7/19,52,33,,23,,5
2021/7/20,42,32,,21,,4
2021/7/21,45,34,,23,,5
2021/7/22,43,50,,34,,7
2021/7/23,63,38,,21,,6
2021/7/24,67,32,,12,,3
2021/7/25,59,25,,18,,4
2021/7/26,57,36,,30,,7
2021/7/27,70,32,,31,,5
2021/7/28,56,33,,23,,5
2021/7/29,53,46,,29,,6
2021/7/30,51,47,,26,,6
2021/7/31,61,30,,22,,5
2021/6/1,61,43,,18,,8
2021/6/2,51,43,,16,,9
2021/6/3,50,47,,23,,9
2021/6/4,56,30,,17,,9
2021/6/5,61,30,,9,,7
2021/6/6,58,45,,25,,9
2021/6/7,52,50,,24,,10
2021/6/8,60,49,,26,,10
2021/6/9,57,49,,26,,10
2021/6/10,52,57,,27,,11
2021/6/11,56,40,,18,,9
2021/6/12,61,19,,9,,8
2021/6/13,36,28,,21,,10
2021/6/14,34,54,,35,,11
2021/6/15,64,30,,19,,9
2021/6/16,44,25,,16,,7
2021/6/17,34,32,,15,,8
2021/6/18,58,38,,12,,9
2021/6/19,68,32,,9,,9
2021/6/20,63,37,,12,,9
2021/6/21,54,40,,18,,10
2021/6/22,70,50,,23,,13
2021/6/23,77,28,,21,,12
2021/6/24,55,35,,22,,13
2021/6/25,68,26,,17,,11
2021/6/26,47,36,,19,,10
2021/6/27,44,40,,29,,13
2021/6/28,50,46,,33,,13
2021/6/29,54,40,,25,,12
2021/6/30,62,42,,25,,12
2021/5/1,74,19,,5,,3
2021/5/2,47,16,,5,,3
2021/5/3,32,31,,22,,5
2021/5/4,52,19,,22,,6
2021/5/5,42,28,,17,,5
2021/5/6,41,21,,23,,7
2021/5/7,51,23,,12,,4
2021/5/8,44,26,,13,,5
2021/5/9,53,21,,13,,4
2021/5/10,34,32,,9,,4
2021/5/11,43,30,,8,,4
2021/5/12,39,24,,10,,4
2021/5/13,28,48,,20,,7
2021/5/14,65,39,,17,,6
2021/5/15,56,21,,16,,7
2021/5/16,53,23,,16,,7
2021/5/17,49,34,,14,,7
2021/5/18,65,18,,21,,8
2021/5/19,42,34,,23,,8
2021/5/20,49,36,,23,,7
2021/5/21,49,22,,16,,7
2021/5/22,30,24,,17,,7
2021/5/23,28,21,,17,,7
2021/5/24,34,22,,19,,8
2021/5/25,45,29,,22,,7
2021/5/26,34,37,,25,,9
2021/5/27,43,47,,25,,9
2021/5/28,59,27,,16,,8
2021/5/29,45,27,,12,,7
2021/5/30,37,36,,17,,7
2021/5/31,40,55,,31,,10
2021/4/1,101,42,,17,,5
2021/4/2,51,22,,9,,4
2021/4/3,41,23,,8,,4
2021/4/4,41,24,,6,,4
2021/4/5,51,32,,14,,5
2021/4/6,51,30,,16,,5
2021/4/7,62,22,,16,,5
2021/4/8,57,39,,20,,6
2021/4/9,68,67,,29,,9
2021/4/10,92,43,,14,,7
2021/4/11,76,45,,18,,6
2021/4/12,65,22,,18,,6
2021/4/13,45,17,,24,,7
2021/4/14,48,19,,19,,8
2021/4/15,55,23,,21,,9
2021/4/16,63,27,,17,,8
2021/4/17,71,32,,14,,8
2021/4/18,69,39,,18,,8
2021/4/19,72,44,,22,,8
2021/4/20,66,60,,23,,8
2021/4/21,96,44,,16,,7
2021/4/22,55,27,,18,,7
2021/4/23,47,36,,12,,7
2021/4/24,48,34,,12,,6
2021/4/25,33,42,,19,,7
2021/4/26,50,59,,26,,9
2021/4/27,69,43,,16,,5
2021/4/28,72,50,,22,,5
2021/4/29,77,49,,19,,5
2021/4/30,71,28,,8,,4
2021/3/1,73,50,,15,,6
2021/3/2,100,55,,23,,9
2021/3/3,121,48,,19,,7
2021/3/4,103,39,,20,,6
2021/3/5,50,43,,14,,6
2021/3/6,58,36,,5,,5
2021/3/7,55,43,,22,,7
2021/3/8,49,64,,24,,7
2021/3/9,73,70,,27,,9
2021/3/10,115,54,,16,,7
2021/3/11,107,25,,20,,8
2021/3/12,66,22,,14,,7
2021/3/13,54,20,,8,,7
2021/3/14,37,52,,27,,10
2021/3/15,82,54,,25,,11
2021/3/16,103,31,,19,,9
2021/3/17,63,27,,21,,9
2021/3/18,53,44,,23,,9
2021/3/19,68,40,,13,,8
2021/3/20,53,29,,10,,8
2021/3/21,73,47,,22,,9
2021/3/22,52,47,,21,,10
2021/3/23,64,51,,22,,10
2021/3/24,78,72,,26,,8
2021/3/25,125,73,,24,,6
2021/3/26,141,52,,12,,4
2021/3/27,100,35,,11,,3
2021/3/28,63,38,,24,,6
2021/3/29,84,38,,21,,7
2021/3/30,86,56,,30,,9
2021/3/31,98,58,,27,,7
2021/2/1,139,50,,20,,7
2021/2/2,124,50,,23,,8
2021/2/3,126,21,,20,,4
2021/2/4,58,44,,25,,6
2021/2/5,71,38,,11,,2
2021/2/6,82,23,,4,,
2021/2/7,59,25,,7,,2
2021/2/8,63,48,,28,,5
2021/2/9,105,75,,33,,8
2021/2/10,160,37,,23,,4
2021/2/11,91,19,,23,,4
2021/2/12,56,24,,17,,3
2021/2/13,65,19,,11,,3
2021/2/14,57,33,,21,,4
2021/2/15,83,39,,19,,4
2021/2/16,99,67,,21,,6
2021/2/17,158,48,,17,,4
2021/2/18,117,56,,26,,7
2021/2/19,129,52,,25,,7
2021/2/20,114,51,,25,,8
2021/2/21,118,63,,36,,11
2021/2/22,137,72,,30,,10
2021/2/23,156,78,,29,,10
2021/2/24,139,97,,34,,11
2021/2/25,142,50,,21,,7
2021/2/26,103,28,,13,,5
2021/2/27,42,28,,9,,5
2021/2/28,72,31,,16,,6
2021/1/4,94,15,,7,,8
2021/1/5,57,23,,8,,9
2021/1/6,78,25,,13,,10
2021/1/7,81,35,,17,,10
2021/1/8,104,41,,11,,9
2021/1/9,122,29,,9,,9
2021/1/10,91,37,,16,,10
2021/1/11,102,45,,17,,8
2021/1/12,118,28,,19,,4
2021/1/13,85,28,,17,,4
2021/1/14,88,27,,17,,3
2021/1/15,77,30,,12,,3
2021/1/16,89,40,,12,,4
2021/1/17,117,80,,29,,10
2021/1/18,179,76,,20,,8
2021/1/19,176,45,,23,,7
2021/1/20,123,39,,25,,7
2021/1/21,102,36,,25,,7
2021/1/22,90,33,,16,,5
2021/1/23,84,26,,12,,4
2021/1/24,72,26,,18,,5
2021/1/25,70,22,,10,,3
2021/1/26,64,29,,17,,4
2021/1/27,56,45,,21,,5
2021/1/28,85,21,,15,,4
2021/1/29,61,36,,18,,5
2021/1/30,84,30,,14,,5
2021/1/31,79,57,,18,,6
2020/10/1,116,13,,9,,3
2020/10/2,49,,,7,,3
2020/10/9,82,27,,15,,5
2020/10/10,77,24,,15,,5
2020/10/11,61,23,,23,,5
2020/10/12,72,11,,13,,4
2020/10/13,46,11,,10,,4
2020/10/14,43,31,,18,,8
2020/10/15,82,26,,13,,6
2020/10/16,76,20,,10,,5
2020/10/17,66,19,,7,,4
2020/10/18,66,28,,17,,5
2020/10/19,73,34,,20,,7
2020/10/20,87,35,,21,,7
2020/10/21,82,40,,25,,7
2020/10/22,82,37,,26,,8
2020/10/23,95,32,,17,,6
2020/10/24,90,31,,10,,5
2020/10/25,91,28,,14,,5
2020/10/26,81,37,,19,,7
2020/10/27,90,42,,19,,8
2020/10/28,103,36,,17,,6
2020/10/29,85,37,,20,,7
2020/10/30,81,44,,16,,7
2020/10/31,103,34,,10,,6
2020/11/1,97,36,,13,,8
2020/11/2,99,25,,20,,8
2020/11/3,76,28,,21,,8
2020/11/4,82,28,,13,,5
2020/11/5,73,23,,12,,5
2020/11/6,76,22,,11,,6
2020/11/7,71,34,,10,,7
2020/11/8,93,26,,12,,5
2020/11/9,72,27,,12,,5
2020/11/10,74,32,,10,,5
2020/11/11,90,33,,13,,7
2020/11/12,90,42,,16,,8
2020/11/13,109,51,,15,,9
2020/11/14,129,43,,12,,8
2020/11/15,118,31,,13,,7
2020/11/16,91,39,,20,,8
2020/11/17,100,31,,17,,8
2020/11/18,92,29,,14,,6
2020/11/19,80,23,,15,,5
2020/11/20,60,32,,12,,6
2020/11/21,88,24,,7,,5
2020/11/22,72,22,,11,,5
2020/11/23,70,30,,16,,6
2020/11/24,75,48,,26,,10
2020/11/25,110,48,,21,,9
2020/11/26,124,33,,16,,7
2020/11/27,95,19,,11,,6
2020/11/28,65,21,,8,,6
2020/11/29,66,39,,18,,9
2020/11/30,102,42,,13,,8
2020/12/1,120,34,,11,,6
2020/12/2,99,32,,9,,6
2020/12/3,95,27,,9,,6
2020/12/4,85,28,,7,,6
2020/12/5,84,23,,4,,5
2020/12/6,76,21,,6,,5
2020/12/7,67,26,,7,,5
2020/12/8,79,32,,8,,6
2020/12/9,94,29,,9,,6
2020/12/10,90,30,,8,,7
2020/12/11,93,21,,6,,6
2020/12/12,73,26,,9,,7
2020/12/13,84,25,,18,,8
2020/12/14,74,30,,13,,7
2020/12/15,90,39,,17,,10
2020/12/16,107,42,,12,,9
2020/12/17,120,44,,19,,11
2020/12/18,120,41,,14,,10
2020/12/19,112,32,,9,,8
2020/12/20,98,36,,15,,10
2020/12/21,104,31,,15,,9
2020/12/22,98,25,,24,,10
2020/12/23,70,18,,12,,8
2020/12/24,66,10,,6,,6
2020/12/25,44,19,,5,,6
2020/12/26,65,24,,6,,7
2020/12/27,77,18,,6,,6
2020/12/28,63,16,,13,,7
2020/12/29,60,26,,23,,10
2020/12/30,83,33,,16,,9
2020/12/31,98,36,,11,,8
2021/1/1,103,40,,9,,9
2021/1/2,116,41,,5,,8
2021/1/3,120,31,,8,,8
2020/7/1,53,22,,19,,7
2020/7/2,53,26,,21,,7
2020/7/3,62,27,,17,,6
2020/7/4,62,24,,12,,6
2020/7/5,56,23,,15,,6
2020/7/6,52,24,,16,,6
2020/7/7,48,25,,19,,6
2020/7/8,53,28,,22,,7
2020/7/9,62,22,,19,,7
2020/7/10,58,15,,14,,7
2020/7/11,49,19,,14,,6
2020/7/12,47,21,,17,,7
2020/7/13,47,26,,25,,8
2020/7/14,53,28,,23,,7
2020/7/15,60,28,,20,,7
2020/7/16,70,27,,22,,8
2020/7/17,67,25,,13,,7
2020/7/18,67,26,,14,,6
2020/7/19,66,29,,24,,8
2020/7/20,67,24,,15,,7
2020/7/21,54,22,,18,,7
2020/7/22,44,30,,21,,7
2020/7/23,52,25,,25,,8
2020/7/24,56,26,,14,,7
2020/7/25,55,20,,15,,7
2020/7/26,48,25,,23,,8
2020/7/27,58,29,,22,,8
2020/7/28,66,24,,21,,8
2020/7/29,57,32,,24,,8
2020/7/30,55,23,,19,,8
2020/7/31,47,26,,20,,8
2020/8/1,56,18,,19,,7
2020/8/2,48,32,,22,,8
2020/8/3,69,24,,20,,9
2020/8/4,73,21,,18,,7
2020/8/5,52,21,,9,,3
2020/8/6,49,28,,12,,3
2020/8/7,58,28,,13,,3
2020/8/8,60,31,,25,,6
2020/8/9,65,29,,18,,4
2020/8/10,62,35,,15,,3
2020/8/11,63,34,,18,,4
2020/8/12,52,35,,23,,4
2020/8/13,57,30,,16,,3
2020/8/14,56,20,,7,,2
2020/8/15,48,19,,10,,2
2020/8/16,48,27,,15,,3
2020/8/17,58,32,,23,,5
2020/8/18,71,35,,20,,5
2020/8/19,66,35,,25,,5
2020/8/20,61,38,,34,,6
2020/8/21,62,30,,16,,4
2020/8/22,69,25,,14,,4
2020/8/23,65,28,,22,,5
2020/8/24,57,25,,25,,5
2020/8/25,57,26,,19,,4
2020/8/26,52,10,,8,,3
2020/8/27,34,16,,15,,4
2020/8/28,51,23,,18,,6
2020/8/29,66,20,,9,,5
2020/8/30,67,16,,19,,6
2020/8/31,51,14,,11,,4
2020/9/1,52,18,,15,,5
2020/9/2,59,21,,20,,6
2020/9/3,56,26,,23,,6
2020/9/4,67,23,,18,,6
2020/9/5,66,21,,14,,5
2020/9/6,60,28,,23,,6
2020/9/7,63,25,,19,,5
2020/9/8,57,31,,25,,5
2020/9/9,64,28,,21,,4
2020/9/10,58,33,,30,,5
2020/9/11,66,30,,22,,4
2020/9/12,71,25,,17,,4
2020/9/13,64,39,,32,,7
2020/9/14,74,39,,34,,7
2020/9/15,80,49,,30,,6
2020/9/16,93,31,,19,,4
2020/9/17,57,30,,22,,5
2020/9/18,50,39,,28,,7
2020/9/19,66,32,,22,,6
2020/9/20,64,35,,27,,7
2020/9/21,69,46,,29,,6
2020/9/22,86,46,,25,,5
2020/9/23,85,45,,31,,7
2020/9/24,92,31,,14,,4
2020/9/25,76,31,,9,,3
2020/9/26,76,11,,9,,3
2020/9/27,45,17,,10,,4
2020/9/28,59,21,,13,,4
2020/9/29,63,36,,15,,4
2020/9/30,77,56,,10,,4
2020/4/1,76,42,,17,,3
2020/4/2,89,61,,10,,2
2020/4/3,95,43,,15,,3
2020/4/4,71,37,,14,,5
2020/4/5,92,41,,11,,2
2020/4/6,84,58,,20,,3
2020/4/7,99,42,,23,,4
2020/4/8,66,53,,18,,3
2020/4/9,84,35,,16,,3
2020/4/10,63,23,,4,,2
2020/4/11,50,27,,7,,3
2020/4/12,60,27,,6,,3
2020/4/13,60,31,,10,,3
2020/4/14,51,40,,11,,3
2020/4/15,72,55,,10,,3
2020/4/16,71,35,,13,,3
2020/4/17,55,31,,10,,3
2020/4/18,51,23,,7,,3
2020/4/19,49,30,,11,,3
2020/4/20,61,34,,10,,3
2020/4/21,63,37,,13,,4
2020/4/22,67,47,,22,,5
2020/4/23,61,54,,24,,5
2020/4/24,73,41,,9,,4
2020/4/25,65,30,,10,,4
2020/4/26,54,44,,23,,5
2020/4/27,66,52,,23,,5
2020/4/28,73,33,,9,,4
2020/4/29,72,20,,9,,4
2020/4/30,61,23,,6,,5
2020/5/1,73,24,,11,,5
2020/5/2,63,29,,10,,5
2020/5/3,74,39,,25,,7
2020/5/4,73,27,,18,,6
2020/5/5,71,18,,16,,7
2020/5/6,57,26,,18,,6
2020/5/7,56,39,,22,,6
2020/5/8,73,46,,19,,6
2020/5/9,73,27,,10,,5
2020/5/10,66,29,,15,,6
2020/5/11,68,16,,12,,6
2020/5/12,39,28,,15,,6
2020/5/13,61,27,,18,,6
2020/5/14,65,34,,23,,7
2020/5/15,71,34,,12,,6
2020/5/16,62,28,,11,,6
2020/5/17,58,25,,16,,7
2020/5/18,56,25,,15,,5
2020/5/19,67,23,,18,,3
2020/5/20,53,26,,17,,3
2020/5/21,46,28,,21,,3
2020/5/22,54,37,,21,,3
2020/5/23,64,20,,9,,2
2020/5/24,53,23,,21,,4
2020/5/25,59,27,,19,,4
2020/5/26,63,34,,23,,4
2020/5/27,63,34,,19,,4
2020/5/28,58,31,,15,,3
2020/5/29,48,25,,14,,3
2020/5/30,47,24,,7,,3
2020/5/31,49,30,,12,,3
2020/6/1,46,25,,16,,4
2020/6/2,48,24,,18,,4
2020/6/3,53,24,,19,,4
2020/6/4,56,23,,17,,5
2020/6/5,60,20,,13,,4
2020/6/6,49,18,,15,,4
2020/6/7,54,28,,14,,5
2020/6/8,72,26,,20,,6
2020/6/9,68,25,,19,,6
2020/6/10,72,21,,7,,4
2020/6/11,65,24,,10,,4
2020/6/12,62,24,,3,,4
2020/6/13,63,16,,3,,3
2020/6/14,54,27,,18,,5
2020/6/15,56,32,,28,,6
2020/6/16,63,28,,19,,6
2020/6/17,68,28,,24,,7
2020/6/18,75,22,,16,,6
2020/6/19,63,25,,13,,6
2020/6/20,71,27,,13,,6
2020/6/21,72,28,,20,,8
2020/6/22,74,18,,16,,6
2020/6/23,50,21,,16,,6
2020/6/24,65,23,,11,,5
2020/6/25,63,23,,13,,5
2020/6/26,60,24,,17,,6
2020/6/27,61,30,,19,,7
2020/6/28,76,25,,18,,7
2020/6/29,61,28,,19,,6
2020/6/30,60,27,,23,,6
2020/1/1,71,37,,15,,4
2020/1/2,95,44,,22,,7
2020/1/3,114,13,,9,,3
2020/1/4,49,15,,11,,4
2020/1/5,43,31,,15,,5
2020/1/6,95,48,,24,,7
2020/1/7,112,39,,19,,6
2020/1/8,108,27,,16,,7
2020/1/9,87,29,,17,,6
2020/1/10,92,15,,15,,5
2020/1/11,54,25,,13,,5
2020/1/12,76,25,,19,,6
2020/1/13,81,44,,21,,8
2020/1/14,119,44,,23,,8
2020/1/15,103,50,,23,,8
2020/1/16,112,45,,16,,8
2020/1/17,131,46,,19,,8
2020/1/18,129,42,,20,,7
2020/1/19,106,36,,18,,5
2020/1/20,92,33,,13,,4
2020/1/21,80,18,,15,,5
2020/1/22,62,22,,15,,5
2020/1/23,73,45,,17,,6
2020/1/24,114,33,,13,,6
2020/1/25,101,38,,16,,7
2020/1/26,112,56,,23,,10
2020/1/27,150,42,,23,,9
2020/1/28,119,15,,18,,6
2020/1/29,57,15,,16,,5
2020/1/30,58,13,,15,,5
2020/1/31,53,17,,15,,6
2020/2/1,63,12,,7,,4
2020/2/2,48,24,,19,,6
2020/2/3,65,19,,21,,7
2020/2/4,65,25,,18,,6
2020/2/5,59,20,,15,,6
2020/2/6,71,35,,22,,7
2020/2/7,57,56,,28,,9
2020/2/8,109,46,,16,,7
2020/2/9,106,14,,11,,5
2020/2/10,53,11,,12,,5
2020/2/11,45,17,,11,,5
2020/2/12,51,25,,17,,6
2020/2/13,65,33,,19,,8
2020/2/14,101,35,,17,,7
2020/2/15,107,34,,11,,7
2020/2/16,80,32,,19,,7
2020/2/17,63,17,,15,,6
2020/2/18,58,25,,20,,7
2020/2/19,62,30,,21,,8
2020/2/20,77,22,,19,,7
2020/2/21,71,24,,13,,6
2020/2/22,66,12,,9,,6
2020/2/23,42,13,,15,,6
2020/2/24,50,19,,19,,8
2020/2/25,65,18,,23,,8
2020/2/26,64,21,,20,,8
2020/2/27,68,33,,25,,9
2020/2/28,88,31,,14,,7
2020/2/29,68,26,,14,,7
2020/3/1,64,25,,20,,8
2020/3/2,82,25,,30,,6
2020/3/3,75,31,,23,,3
2020/3/4,79,46,,29,,3
2020/3/5,102,30,,14,,1
2020/3/6,89,30,,14,,2
2020/3/7,88,29,,19,,2
2020/3/8,77,39,,20,,2
2020/3/9,97,42,,24,,2
2020/3/10,103,19,,12,,
2020/3/11,51,19,,10,,1
2020/3/12,54,26,,16,,3
2020/3/13,54,25,,11,,2
2020/3/14,44,30,,12,,3
2020/3/15,67,42,,18,,3
2020/3/16,76,74,,27,,6
2020/3/17,119,62,,25,,5
2020/3/18,107,49,,15,,3
2020/3/19,103,39,,15,,2
2020/3/20,64,27,,6,,2
2020/3/21,53,22,,3,,1
2020/3/22,49,26,,7,,2
2020/3/23,64,33,,12,,2
2020/3/24,73,37,,11,,2
2020/3/25,83,43,,10,,2
2020/3/26,96,58,,12,,2
2020/3/27,133,63,,11,,3
2020/3/28,153,,,,,
2019/10/1,44,17,,24,,7
2019/10/2,57,23,,22,,7
2019/10/3,66,28,,21,,7
2019/10/4,72,20,,11,,4
2019/10/5,64,17,,17,,5
2019/10/6,45,34,,26,,7
2019/10/7,78,32,,25,,7
2019/10/8,85,23,,22,,7
2019/10/9,70,16,,20,,6
2019/10/10,56,22,,20,,6
2019/10/11,58,24,,20,,6
2019/10/12,55,25,,25,,7
2019/10/13,64,39,,33,,9
2019/10/14,85,40,,24,,6
2019/10/15,102,33,,23,,7
2019/10/16,84,23,,29,,8
2019/10/17,62,34,,33,,9
2019/10/18,83,44,,28,,9
2019/10/19,113,40,,23,,8
2019/10/20,108,41,,35,,10
2019/10/21,96,59,,36,,11
2019/10/22,146,39,,19,,7
2019/10/23,115,43,,15,,6
2019/10/24,124,55,,25,,11
2019/10/25,153,50,,23,,10
2019/10/26,127,29,,15,,5
2019/10/27,68,23,,16,,5
2019/10/28,68,23,,25,,7
2019/10/29,67,33,,28,,8
2019/10/30,76,49,,32,,9
2019/10/31,113,42,,20,,7
2019/11/1,112,27,,14,,6
2019/11/2,77,20,,11,,6
2019/11/3,67,23,,19,,7
2019/11/4,75,22,,26,,8
2019/11/5,64,29,,27,,8
2019/11/6,79,41,,27,,10
2019/11/7,110,23,,13,,5
2019/11/8,78,23,,16,,5
2019/11/9,77,28,,17,,5
2019/11/10,84,29,,15,,4
2019/11/11,90,23,,15,,4
2019/11/12,75,28,,18,,5
2019/11/13,88,21,,20,,4
2019/11/14,71,28,,9,,3
2019/11/15,88,30,,13,,4
2019/11/16,90,30,,10,,4
2019/11/17,91,30,,11,,3
2019/11/18,90,32,,22,,5
2019/11/19,87,23,,9,,3
2019/11/20,77,15,,6,,2
2019/11/21,58,19,,7,,2
2019/11/22,67,21,,7,,2
2019/11/23,71,26,,6,,3
2019/11/24,83,24,,9,,3
2019/11/25,78,27,,11,,4
2019/11/26,85,29,,13,,5
2019/11/27,92,36,,16,,7
2019/11/28,101,19,,17,,3
2019/11/29,57,16,,14,,3
2019/11/30,49,33,,18,,5
2019/12/1,95,36,,22,,5
2019/12/2,93,24,,20,,4
2019/12/3,77,29,,22,,5
2019/12/4,91,46,,27,,6
2019/12/5,106,44,,23,,6
2019/12/6,108,24,,13,,4
2019/12/7,75,15,,12,,3
2019/12/8,55,23,,21,,6
2019/12/9,72,19,,19,,4
2019/12/10,65,35,,23,,5
2019/12/11,101,38,,21,,6
2019/12/12,104,24,,11,,3
2019/12/13,80,22,,13,,4
2019/12/14,74,14,,16,,4
2019/12/15,50,28,,24,,6
2019/12/16,80,42,,24,,8
2019/12/17,117,35,,21,,6
2019/12/18,94,39,,24,,7
2019/12/19,114,33,,18,,5
2019/12/20,96,33,,20,,6
2019/12/21,89,20,,11,,5
2019/12/22,70,19,,14,,6
2019/12/23,68,16,,11,,4
2019/12/24,62,23,,11,,4
2019/12/25,76,17,,7,,3
2019/12/26,64,14,,12,,4
2019/12/27,55,19,,13,,3
2019/12/28,47,29,,15,,4
2019/12/29,65,,,,,
2019/7/1,55,36,,18,,3
2019/7/2,47,30,,17,,3
2019/7/3,42,32,,22,,3
2019/7/4,43,25,,16,,3
2019/7/5,43,21,,15,,4
2019/7/6,46,20,,8,,2
2019/7/7,49,23,,11,,2
2019/7/8,36,17,,13,,3
2019/7/9,40,21,,15,,4
2019/7/10,48,25,,21,,5
2019/7/11,47,28,,28,,5
2019/7/12,51,33,,25,,6
2019/7/13,60,17,,15,,3
2019/7/14,37,26,,27,,4
2019/7/15,40,30,,19,,4
2019/7/16,59,24,,17,,4
2019/7/17,48,29,,29,,7
2019/7/18,49,37,,34,,7
2019/7/19,56,28,,23,,5
2019/7/20,65,25,,15,,4
2019/7/21,59,27,,21,,4
2019/7/22,46,35,,24,,5
2019/7/23,55,30,,26,,5
2019/7/24,53,31,,29,,6
2019/7/25,50,20,,11,,3
2019/7/26,44,19,,8,,2
2019/7/27,49,23,,11,,3
2019/7/28,62,26,,22,,5
2019/7/29,66,36,,28,,6
2019/7/30,74,24,,16,,3
2019/7/31,48,32,,30,,5
2019/8/1,50,35,,26,,5
2019/8/2,60,31,,20,,4
2019/8/3,56,24,,15,,3
2019/8/4,44,34,,33,,5
2019/8/5,54,35,,34,,5
2019/8/6,60,34,,32,,5
2019/8/7,60,25,,21,,4
2019/8/8,56,24,,24,,4
2019/8/9,49,23,,15,,3
2019/8/10,50,22,,22,,5
2019/8/11,45,29,,28,,5
2019/8/12,58,33,,28,,5
2019/8/13,64,30,,33,,6
2019/8/14,53,21,,24,,4
2019/8/15,47,29,,26,,4
2019/8/16,57,34,,25,,5
2019/8/17,66,22,,19,,4
2019/8/18,50,24,,25,,6
2019/8/19,47,24,,21,,4
2019/8/20,52,21,,27,,6
2019/8/21,50,19,,20,,4
2019/8/22,51,21,,20,,4
2019/8/23,47,24,,15,,3
2019/8/24,52,19,,9,,3
2019/8/25,48,26,,14,,3
2019/8/26,53,33,,16,,4
2019/8/27,61,33,,22,,5
2019/8/28,66,46,,47,,8
2019/8/29,82,31,,32,,6
2019/8/30,70,18,,10,,3
2019/8/31,53,22,,15,,4
2019/9/1,59,31,,24,,6
2019/9/2,62,21,,29,,6
2019/9/3,46,35,,37,,7
2019/9/4,57,30,,28,,5
2019/9/5,56,36,,33,,7
2019/9/6,51,32,,19,,4
2019/9/7,58,24,,16,,6
2019/9/8,71,30,,20,,5
2019/9/9,66,16,,24,,6
2019/9/10,44,30,,35,,8
2019/9/11,60,34,,33,,7
2019/9/12,68,31,,22,,5
2019/9/13,71,,,16,,4
2019/9/16,16,18,,14,,4
2019/9/17,37,10,,15,,4
2019/9/18,25,15,,21,,5
2019/9/19,45,24,,26,,7
2019/9/20,53,26,,17,,6
2019/9/21,64,39,,30,,11
2019/9/22,84,25,,14,,4
2019/9/23,66,34,,19,,6
2019/9/24,82,47,,20,,6
2019/9/25,106,46,,24,,9
2019/9/26,120,35,,17,,6
2019/9/27,94,24,,20,,6
2019/9/28,75,13,,16,,5
2019/9/29,46,9,,15,,5
2019/9/30,36,16,,19,,5
2019/4/1,47,32,,9,,4
2019/4/2,54,40,,9,,4
2019/4/3,71,47,,11,,4
2019/4/4,91,49,,14,,5
2019/4/5,93,49,,10,,5
2019/4/6,89,62,,26,,8
2019/4/7,111,78,,42,,10
2019/4/8,133,42,,13,,5
2019/4/9,76,39,,14,,5
2019/4/10,69,40,,17,,5
2019/4/11,75,36,,14,,5
2019/4/12,72,34,,11,,5
2019/4/13,78,25,,6,,4
2019/4/14,58,31,,17,,5
2019/4/15,60,39,,20,,6
2019/4/16,75,35,,22,,6
2019/4/17,72,49,,31,,7
2019/4/18,82,47,,24,,6
2019/4/19,70,52,,14,,5
2019/4/20,71,,,,,
2019/5/1,60,46,,10,,5
2019/5/2,76,26,,10,,5
2019/5/3,56,34,,18,,6
2019/5/4,65,14,,12,,6
2019/5/5,37,30,,23,,7
2019/5/6,47,48,,30,,8
2019/5/7,68,33,,21,,6
2019/5/8,65,32,,19,,6
2019/5/9,58,38,,29,,9
2019/5/10,90,45,,28,,9
2019/5/11,83,25,,13,,6
2019/5/12,69,19,,26,,8
2019/5/13,47,17,,19,,7
2019/5/14,55,23,,13,,7
2019/5/15,69,29,,18,,9
2019/5/16,76,27,,24,,9
2019/5/17,65,25,,16,,7
2019/5/18,68,20,,9,,7
2019/5/19,59,27,,11,,7
2019/5/20,64,26,,10,,6
2019/5/21,52,14,,12,,7
2019/5/22,39,37,,26,,9
2019/5/23,74,43,,30,,7
2019/5/24,68,41,,25,,4
2019/5/25,65,30,,21,,3
2019/5/26,59,32,,29,,4
2019/5/27,63,25,,27,,5
2019/5/28,66,28,,25,,4
2019/5/29,53,29,,25,,3
2019/5/30,47,43,,38,,5
2019/5/31,63,34,,23,,5
2019/6/1,60,30,,25,,5
2019/6/2,67,21,,17,,2
2019/6/3,42,27,,17,,3
2019/6/4,57,28,,14,,3
2019/6/5,60,27,,13,,2
2019/6/6,62,31,,25,,4
2019/6/7,60,40,,24,,5
2019/6/8,75,20,,15,,2
2019/6/9,38,25,,14,,3
2019/6/10,55,33,,18,,4
2019/6/11,69,36,,22,,4
2019/6/12,65,41,,25,,4
2019/6/13,69,27,,26,,5
2019/6/14,61,31,,10,,3
2019/6/15,69,35,,13,,4
2019/6/16,65,26,,24,,5
2019/6/17,50,,,13,,2
2019/6/21,61,16,,9,,2
2019/6/22,40,13,,10,,2
2019/6/23,29,22,,14,,2
2019/6/24,40,28,,19,,3
2019/6/25,50,40,,38,,5
2019/6/26,65,44,,20,,4
2019/6/27,61,30,,22,,4
2019/6/28,45,34,,20,,3
2019/6/29,42,31,,23,,3
2019/6/30,49,38,,30,,5
2019/1/1,62,8,,15,,6
2019/1/2,32,38,,23,,7
2019/1/3,50,33,,24,,8
2019/1/4,81,15,,21,,7
2019/1/5,52,21,,14,,6
2019/1/6,52,53,,30,,11
2019/1/7,134,52,,25,,10
2019/1/8,138,46,,19,,9
2019/1/9,131,48,,18,,8
2019/1/10,138,49,,28,,10
2019/1/11,135,29,,22,,8
2019/1/12,83,22,,17,,8
2019/1/13,70,11,,17,,7
2019/1/14,39,21,,18,,7
2019/1/15,56,23,,28,,9
2019/1/16,68,32,,24,,9
2019/1/17,85,24,,22,,6
2019/1/18,59,48,,28,,7
2019/1/19,111,64,,27,,9
2019/1/20,150,53,,23,,6
2019/1/21,138,53,,24,,6
2019/1/22,132,42,,16,,4
2019/1/23,109,27,,13,,3
2019/1/24,75,31,,22,,5
2019/1/25,89,61,,25,,7
2019/1/26,157,61,,17,,7
2019/1/27,154,46,,26,,6
2019/1/28,125,42,,25,,8
2019/1/29,117,44,,21,,6
2019/1/30,125,39,,20,,7
2019/1/31,111,41,,19,,6
2019/2/1,123,22,,14,,4
2019/2/2,71,49,,19,,7
2019/2/3,138,20,,20,,5
2019/2/4,65,39,,24,,5
2019/2/5,100,49,,27,,6
2019/2/6,118,50,,27,,5
2019/2/7,113,57,,30,,7
2019/2/8,132,49,,22,,6
2019/2/9,124,35,,15,,4
2019/2/10,89,27,,18,,4
2019/2/11,75,26,,19,,4
2019/2/12,50,26,,18,,4
2019/2/13,80,36,,25,,5
2019/2/14,76,56,,22,,6
2019/2/15,135,52,,22,,7
2019/2/16,117,54,,19,,5
2019/2/17,110,66,,32,,7
2019/2/18,138,70,,26,,6
2019/2/19,140,41,,16,,4
2019/2/20,68,30,,22,,5
2019/2/21,85,30,,17,,3
2019/2/22,46,50,,21,,5
2019/2/23,74,57,,15,,5
2019/2/24,114,63,,20,,6
2019/2/25,136,61,,23,,5
2019/2/26,90,49,,22,,5
2019/2/27,84,66,,21,,5
2019/2/28,119,58,,26,,5
2019/3/1,94,58,,27,,6
2019/3/2,86,48,,16,,6
2019/3/3,120,31,,19,,5
2019/3/4,61,30,,12,,4
2019/3/5,54,33,,25,,6
2019/3/6,80,45,,28,,6
2019/3/7,87,38,,16,,4
2019/3/8,58,22,,18,,5
2019/3/9,59,19,,12,,4
2019/3/10,47,28,,17,,4
2019/3/11,60,56,,24,,5
2019/3/12,88,55,,28,,6
2019/3/13,100,39,,24,,6
2019/3/14,82,19,,23,,6
2019/3/15,64,19,,14,,5
2019/3/16,45,32,,24,,7
2019/3/17,68,32,,21,,5
2019/3/18,55,43,,20,,5
2019/3/19,79,59,,25,,6
2019/3/20,98,56,,22,,6
2019/3/21,95,48,,23,,6
2019/3/22,84,52,,28,,7
2019/3/23,97,52,,18,,5
2019/3/24,75,56,,32,,7
2019/3/25,93,28,,18,,5
2019/3/26,66,36,,22,,5
2019/3/27,59,48,,26,,6
2019/3/28,84,47,,22,,6
2019/3/29,89,54,,22,,7
2019/3/30,103,57,,22,,7
2019/3/31,111,25,,15,,4
2018/10/1,86,41,,24,,5
2018/10/2,78,18,,16,,4
2018/10/3,38,30,,27,,6
2018/10/4,63,41,,36,,7
2018/10/5,84,39,,29,,6
2018/10/6,91,39,,23,,5
2018/10/7,77,35,,31,,6
2018/10/8,63,51,,35,,8
2018/10/9,105,55,,41,,9
2018/10/10,129,48,,22,,4
2018/10/11,118,48,,29,,5
2018/10/12,109,50,,24,,5
2018/10/13,121,44,,16,,4
2018/10/14,107,45,,29,,5
2018/10/15,86,56,,40,,8
2018/10/16,118,68,,48,,10
2018/10/17,136,74,,58,,13
2018/10/18,151,62,,41,,10
2018/10/19,143,36,,29,,8
2018/10/20,98,23,,30,,7
2018/10/21,66,36,,28,,7
2018/10/22,90,13,,17,,4
2018/10/23,47,6,,20,,4
2018/10/24,16,9,,21,,4
2018/10/25,37,19,,27,,5
2018/10/26,50,31,,19,,5
2018/10/27,77,17,,13,,4
2018/10/28,54,20,,12,,4
2018/10/29,62,25,,19,,5
2018/10/30,61,36,,38,,8
2018/10/31,67,38,,13,,5
2018/11/1,94,51,,27,,8
2018/11/2,101,26,,19,,5
2018/11/3,80,21,,8,,4
2018/11/4,69,39,,14,,5
2018/11/5,106,42,,20,,6
2018/11/6,109,47,,16,,5
2018/11/7,124,61,,32,,12
2018/11/8,142,67,,25,,11
2018/11/9,159,65,,15,,7
2018/11/10,158,54,,12,,6
2018/11/11,146,56,,15,,6
2018/11/12,150,50,,23,,8
2018/11/13,133,24,,22,,6
2018/11/14,74,22,,23,,5
2018/11/15,62,25,,13,,4
2018/11/16,73,46,,18,,6
2018/11/17,117,57,,21,,9
2018/11/18,150,13,,10,,4
2018/11/19,52,18,,11,,4
2018/11/20,60,23,,12,,3
2018/11/21,73,29,,19,,4
2018/11/22,84,40,,20,,5
2018/11/23,111,52,,16,,8
2018/11/24,144,60,,16,,11
2018/11/25,158,25,,11,,5
2018/11/26,78,58,,31,,10
2018/11/27,128,42,,21,,6
2018/11/28,108,24,,13,,4
2018/11/29,68,27,,14,,4
2018/11/30,74,54,,22,,8
2018/12/1,129,61,,18,,9
2018/12/2,150,36,,22,,9
2018/12/3,103,32,,23,,8
2018/12/4,94,33,,26,,7
2018/12/5,87,49,,23,,8
2018/12/6,131,35,,25,,10
2018/12/7,101,24,,20,,7
2018/12/8,70,16,,18,,7
2018/12/9,58,17,,18,,6
2018/12/10,55,39,,27,,8
2018/12/11,91,36,,22,,7
2018/12/12,101,21,,16,,6
2018/12/13,66,27,,15,,7
2018/12/14,82,25,,11,,6
2018/12/15,78,26,,12,,6
2018/12/16,81,57,,29,,12
2018/12/17,137,78,,33,,14
2018/12/18,172,52,,19,,8
2018/12/19,138,46,,21,,8
2018/12/20,119,53,,28,,11
2018/12/21,138,16,,15,,7
2018/12/22,59,19,,13,,6
2018/12/23,61,13,,15,,7
2018/12/24,53,21,,9,,6
2018/12/25,65,14,,7,,5
2018/12/26,53,21,,14,,7
2018/12/27,67,18,,20,,7
2018/12/28,57,25,,20,,7
2018/12/29,72,22,,16,,7
2018/12/30,73,,,,,
2018/7/1,36,20,,16,,4
2018/7/2,41,32,,27,,5
2018/7/3,45,39,,38,,7
2018/7/4,54,40,,46,,6
2018/7/5,53,32,,26,,5
2018/7/6,52,37,,18,,4
2018/7/7,60,24,,14,,4
2018/7/8,50,24,,25,,5
2018/7/9,42,21,,15,,4
2018/7/10,44,28,,26,,6
2018/7/11,63,31,,33,,7
2018/7/12,74,31,,26,,6
2018/7/13,62,19,,14,,5
2018/7/14,60,19,,13,,5
2018/7/15,60,23,,25,,7
2018/7/16,63,16,,19,,6
2018/7/17,50,23,,19,,6
2018/7/18,64,39,,21,,7
2018/7/19,80,43,,23,,7
2018/7/20,80,42,,26,,7
2018/7/21,67,37,,26,,8
2018/7/22,71,37,,28,,7
2018/7/23,60,45,,35,,7
2018/7/24,64,33,,17,,5
2018/7/25,62,33,,22,,7
2018/7/26,61,31,,14,,5
2018/7/27,60,31,,12,,5
2018/7/28,69,33,,12,,5
2018/7/29,70,29,,18,,6
2018/7/30,63,38,,20,,6
2018/7/31,76,32,,19,,6
2018/8/1,69,32,,20,,6
2018/8/2,60,58,,38,,8
2018/8/3,77,48,,29,,6
2018/8/4,74,23,,17,,4
2018/8/5,47,33,,25,,5
2018/8/6,48,40,,35,,6
2018/8/7,57,29,,21,,4
2018/8/8,50,32,,16,,3
2018/8/9,57,40,,25,,5
2018/8/10,68,18,,23,,5
2018/8/11,55,18,,19,,4
2018/8/12,38,30,,32,,5
2018/8/13,59,37,,34,,7
2018/8/14,66,24,,16,,4
2018/8/15,57,21,,22,,5
2018/8/16,45,23,,19,,4
2018/8/17,49,36,,27,,6
2018/8/18,67,39,,31,,7
2018/8/19,76,44,,35,,6
2018/8/20,74,36,,25,,5
2018/8/21,51,23,,18,,4
2018/8/22,41,33,,19,,4
2018/8/23,62,45,,32,,6
2018/8/24,85,25,,22,,5
2018/8/25,66,17,,18,,4
2018/8/26,53,23,,28,,6
2018/8/27,52,44,,33,,6
2018/8/28,71,26,,27,,5
2018/8/29,57,28,,22,,4
2018/8/30,68,37,,31,,6
2018/8/31,74,25,,20,,5
2018/9/1,62,23,,8,,3
2018/9/2,61,28,,14,,4
2018/9/3,63,44,,26,,5
2018/9/4,78,39,,26,,6
2018/9/5,80,42,,31,,7
2018/9/6,79,53,,31,,8
2018/9/7,90,46,,20,,5
2018/9/8,93,30,,20,,5
2018/9/9,75,31,,33,,7
2018/9/10,62,42,,36,,7
2018/9/11,70,40,,41,,8
2018/9/12,60,23,,16,,4
2018/9/13,45,18,,19,,4
2018/9/14,51,33,,23,,5
2018/9/15,78,31,,27,,6
2018/9/16,62,34,,42,,8
2018/9/17,62,44,,41,,7
2018/9/18,89,45,,48,,7
2018/9/19,80,52,,61,,9
2018/9/20,93,47,,39,,6
2018/9/21,94,32,,17,,4
2018/9/22,50,20,,19,,4
2018/9/23,55,9,,16,,4
2018/9/24,29,24,,29,,5
2018/9/25,43,26,,28,,5
2018/9/26,59,29,,20,,4
2018/9/27,61,31,,27,,6
2018/9/28,62,35,,32,,8
2018/9/29,61,24,,28,,5
2018/9/30,59,46,,42,,9
2018/4/1,96,23,,11,,16
2018/4/2,71,73,,32,,19
2018/4/3,135,64,,32,,22
2018/4/4,117,86,,31,,19
2018/4/5,115,135,,27,,17
2018/4/6,96,70,,25,,19
2018/4/7,99,77,,17,,20
2018/4/8,137,146,,29,,20
2018/4/9,103,135,,19,,12
2018/4/10,103,59,,8,,8
2018/4/11,89,49,,11,,8
2018/4/12,98,50,,13,,4
2018/4/13,97,50,,30,,4
2018/4/14,84,35,,20,,2
2018/4/15,80,62,,33,,4
2018/4/16,100,44,,32,,4
2018/4/17,88,54,,34,,3
2018/4/18,82,56,,31,,3
2018/4/19,74,61,,44,,5
2018/4/20,70,64,,26,,3
2018/4/21,74,42,,25,,2
2018/4/22,54,47,,36,,3
2018/4/23,66,47,,26,,3
2018/4/24,88,44,,26,,3
2018/4/25,77,35,,28,,3
2018/4/26,58,32,,21,,3
2018/4/27,78,57,,33,,6
2018/4/28,83,46,,21,,3
2018/4/29,86,39,,19,,2
2018/4/30,71,45,,15,,2
2018/5/1,73,38,,12,,1
2018/5/2,57,48,,13,,2
2018/5/3,67,59,,22,,2
2018/5/4,72,47,,18,,2
2018/5/5,52,29,,13,,1
2018/5/6,43,40,,19,,2
2018/5/7,49,41,,16,,2
2018/5/8,51,46,,20,,2
2018/5/9,64,43,,20,,2
2018/5/10,67,45,,19,,2
2018/5/11,69,38,,14,,1
2018/5/12,52,40,,11,,1
2018/5/13,56,38,,12,,1
2018/5/14,61,29,,16,,2
2018/5/15,67,,,,,
2018/5/17,57,39,,28,,4
2018/5/18,71,43,,23,,3
2018/5/19,63,21,,11,,1
2018/5/20,39,23,,14,,1
2018/5/21,42,27,,24,,2
2018/5/22,55,36,,27,,3
2018/5/23,68,29,,17,,2
2018/5/24,52,35,,25,,3
2018/5/25,64,34,,21,,3
2018/5/26,87,27,,12,,2
2018/5/27,64,34,,20,,2
2018/5/28,55,32,,22,,1
2018/5/29,48,41,,37,,5
2018/5/30,58,34,,21,,4
2018/5/31,62,37,,15,,3
2018/6/1,62,30,,15,,3
2018/6/2,75,42,,26,,5
2018/6/3,84,48,,33,,5
2018/6/4,87,42,,25,,4
2018/6/5,67,20,,14,,2
2018/6/6,27,26,,19,,3
2018/6/7,36,39,,27,,3
2018/6/8,49,36,,17,,3
2018/6/9,45,32,,22,,4
2018/6/10,53,48,,33,,6
2018/6/11,86,45,,32,,6
2018/6/12,79,33,,25,,5
2018/6/13,55,36,,27,,5
2018/6/14,57,36,,29,,5
2018/6/15,54,32,,15,,3
2018/6/16,56,39,,27,,5
2018/6/17,62,46,,41,,7
2018/6/18,77,52,,30,,5
2018/6/19,69,50,,36,,6
2018/6/20,65,59,,41,,6
2018/6/21,65,35,,17,,3
2018/6/22,41,35,,17,,4
2018/6/23,55,16,,15,,4
2018/6/24,47,18,,24,,5
2018/6/25,54,26,,25,,6
2018/6/26,68,22,,15,,4
2018/6/27,54,29,,16,,4
2018/6/28,58,41,,31,,6
2018/6/29,62,25,,16,,4
2018/6/30,35,24,,14,,4
2018/1/1,96,55,,18,,10
2018/1/2,147,34,,18,,8
2018/1/3,88,25,,18,,8
2018/1/4,64,27,,19,,7
2018/1/5,76,38,,14,,8
2018/1/6,105,37,,15,,8
2018/1/7,93,78,,38,,13
2018/1/8,131,78,,26,,12
2018/1/9,160,51,,17,,8
2018/1/10,114,40,,14,,8
2018/1/11,107,34,,14,,7
2018/1/12,89,44,,10,,7
2018/1/13,89,43,,9,,7
2018/1/14,97,54,,14,,7
2018/1/15,122,70,,13,,8
2018/1/16,137,39,,15,,8
2018/1/17,110,34,,21,,8
2018/1/18,100,27,,16,,8
2018/1/19,84,53,,24,,10
2018/1/20,143,68,,15,,11
2018/1/21,159,51,,18,,9
2018/1/22,123,56,,18,,10
2018/1/23,142,56,,23,,10
2018/1/24,152,50,,27,,11
2018/1/25,135,70,,27,,12
2018/1/26,159,80,,20,,14
2018/1/27,175,35,,11,,10
2018/1/28,101,18,,11,,9
2018/1/29,63,15,,10,,8
2018/1/30,41,40,,21,,10
2018/1/31,84,42,,24,,12
2018/2/1,118,39,,31,,11
2018/2/2,107,68,,18,,14
2018/2/3,160,43,,15,,11
2018/2/4,104,85,,21,,9
2018/2/5,91,48,,27,,11
2018/2/6,115,114,,25,,14
2018/2/7,170,56,,19,,13
2018/2/8,149,48,,23,,12
2018/2/9,128,61,,23,,12
2018/2/10,150,65,,17,,13
2018/2/11,156,57,,26,,14
2018/2/12,150,85,,30,,16
2018/2/13,171,60,,21,,14
2018/2/14,151,46,,20,,12
2018/2/15,124,56,,23,,13
2018/2/16,150,51,,17,,12
2018/2/17,143,53,,18,,12
2018/2/18,104,71,,29,,13
2018/2/19,145,62,,22,,14
2018/2/20,124,61,,19,,13
2018/2/21,127,59,,17,,12
2018/2/22,136,63,,23,,13
2018/2/23,137,56,,15,,12
2018/2/24,117,65,,12,,11
2018/2/25,116,97,,17,,12
2018/2/26,145,94,,20,,13
2018/2/27,150,72,,15,,12
2018/2/28,119,61,,19,,13
2018/3/1,120,76,,21,,14
2018/3/2,152,66,,24,,14
2018/3/3,157,78,,29,,15
2018/3/4,158,151,,33,,18
2018/3/5,179,87,,28,,17
2018/3/6,164,65,,25,,18
2018/3/7,160,65,,27,,17
2018/3/8,152,54,,26,,15
2018/3/9,126,63,,26,,16
2018/3/10,145,65,,22,,18
2018/3/11,150,47,,23,,18
2018/3/12,102,51,,21,,16
2018/3/13,97,42,,20,,16
2018/3/14,99,41,,17,,17
2018/3/15,100,32,,11,,15
2018/3/16,77,25,,7,,14
2018/3/17,60,43,,7,,14
2018/3/18,66,63,,19,,15
2018/3/19,93,80,,30,,16
2018/3/20,139,61,,27,,15
2018/3/21,80,71,,27,,15
2018/3/22,132,67,,31,,19
2018/3/23,160,87,,25,,20
2018/3/24,171,74,,32,,18
2018/3/25,157,86,,32,,17
2018/3/26,158,55,,25,,18
2018/3/27,105,54,,21,,18
2018/3/28,112,42,,22,,19
2018/3/29,118,61,,27,,18
2018/3/30,119,58,,12,,20
2018/3/31,145,31,,5,,18
2017/10/1,89,47,,21,,5
2017/10/2,101,37,,32,,8
2017/10/3,100,28,,21,,5
2017/10/4,70,15,,28,,6
2017/10/5,49,14,,23,,4
2017/10/6,45,19,,15,,4
2017/10/7,60,16,,20,,4
2017/10/8,54,19,,17,,3
2017/10/9,46,29,,27,,5
2017/10/10,71,23,,20,,4
2017/10/11,72,,,21,,4
2017/10/13,75,42,,16,,4
2017/10/14,94,30,,14,,4
2017/10/15,77,55,,33,,7
2017/10/16,104,71,,43,,10
2017/10/17,137,88,,51,,14
2017/10/18,155,59,,18,,5
2017/10/19,134,55,,23,,8
2017/10/20,126,51,,22,,8
2017/10/21,138,36,,9,,6
2017/10/22,104,31,,12,,6
2017/10/23,90,42,,19,,5
2017/10/24,104,36,,20,,6
2017/10/25,102,24,,14,,4
2017/10/26,65,28,,13,,5
2017/10/27,76,15,,7,,3
2017/10/28,56,7,,5,,3
2017/10/29,27,17,,11,,3
2017/10/30,31,32,,20,,4
2017/10/31,60,32,,9,,3
2017/11/1,93,22,,15,,4
2017/11/2,74,29,,22,,6
2017/11/3,80,44,,22,,6
2017/11/4,105,38,,18,,5
2017/11/5,104,59,,25,,8
2017/11/6,133,44,,19,,5
2017/11/7,114,36,,16,,3
2017/11/8,95,45,,18,,6
2017/11/9,112,52,,22,,7
2017/11/10,129,17,,14,,4
2017/11/11,56,26,,16,,5
2017/11/12,79,33,,20,,7
2017/11/13,99,39,,20,,6
2017/11/14,95,49,,22,,7
2017/11/15,118,67,,22,,10
2017/11/16,156,61,,24,,8
2017/11/17,145,43,,21,,6
2017/11/18,100,23,,12,,4
2017/11/19,72,19,,19,,5
2017/11/20,61,50,,26,,7
2017/11/21,121,56,,18,,8
2017/11/22,149,46,,17,,8
2017/11/23,122,59,,25,,11
2017/11/24,149,52,,21,,8
2017/11/25,135,32,,15,,5
2017/11/26,82,55,,23,,9
2017/11/27,140,56,,21,,8
2017/11/28,137,54,,22,,10
2017/11/29,146,51,,20,,8
2017/11/30,134,42,,16,,6
2017/12/1,121,51,,20,,9
2017/12/2,136,66,,20,,11
2017/12/3,160,44,,18,,7
2017/12/4,119,29,,20,,6
2017/12/5,86,15,,11,,5
2017/12/6,55,38,,20,,7
2017/12/7,104,43,,24,,8
2017/12/8,103,45,,23,,8
2017/12/9,109,38,,15,,6
2017/12/10,97,27,,23,,7
2017/12/11,77,36,,19,,7
2017/12/12,69,52,,24,,8
2017/12/13,96,35,,21,,7
2017/12/14,101,71,,25,,9
2017/12/15,118,48,,18,,8
2017/12/16,129,58,,22,,11
2017/12/17,145,68,,23,,11
2017/12/18,154,45,,20,,8
2017/12/19,109,44,,23,,9
2017/12/20,122,42,,21,,9
2017/12/21,119,23,,19,,7
2017/12/22,71,23,,11,,6
2017/12/23,75,11,,5,,5
2017/12/24,44,16,,6,,5
2017/12/25,58,39,,13,,7
2017/12/26,110,49,,19,,9
2017/12/27,132,44,,22,,8
2017/12/28,101,37,,17,,8
2017/12/29,105,57,,16,,8
2017/12/30,147,,,,,
2017/7/1,30,16,,9,,4
2017/7/2,40,27,,20,,6
2017/7/3,49,25,,22,,7
2017/7/4,48,30,,27,,7
2017/7/5,55,35,,31,,8
2017/7/6,58,35,,32,,8
2017/7/7,58,26,,19,,5
2017/7/8,58,27,,17,,6
2017/7/9,60,29,,21,,6
2017/7/10,65,32,,21,,7
2017/7/11,70,34,,30,,8
2017/7/12,68,24,,24,,7
2017/7/13,49,35,,26,,8
2017/7/14,52,29,,19,,6
2017/7/15,52,23,,22,,7
2017/7/16,50,33,,27,,8
2017/7/17,65,39,,32,,9
2017/7/18,55,38,,30,,7
2017/7/19,69,41,,36,,9
2017/7/20,72,47,,36,,10
2017/7/21,94,31,,13,,6
2017/7/22,70,25,,13,,6
2017/7/23,67,35,,22,,7
2017/7/24,65,21,,16,,6
2017/7/25,61,25,,27,,8
2017/7/26,56,27,,25,,7
2017/7/27,49,27,,27,,8
2017/7/28,61,28,,20,,7
2017/7/29,56,27,,21,,7
2017/7/30,59,38,,33,,8
2017/7/31,61,34,,29,,7
2017/8/1,70,46,,35,,8
2017/8/2,68,39,,36,,8
2017/8/3,74,45,,26,,7
2017/8/4,63,42,,23,,8
2017/8/5,58,28,,15,,6
2017/8/6,59,30,,27,,5
2017/8/7,44,27,,16,,2
2017/8/8,47,30,,27,,4
2017/8/9,58,34,,31,,5
2017/8/10,74,42,,17,,3
2017/8/11,94,27,,17,,3
2017/8/12,58,15,,18,,3
2017/8/13,50,19,,22,,4
2017/8/14,43,15,,10,,2
2017/8/15,39,30,,24,,3
2017/8/16,54,23,,22,,4
2017/8/17,62,55,,23,,4
2017/8/18,85,31,,22,,4
2017/8/19,67,23,,22,,5
2017/8/20,70,22,,26,,6
2017/8/21,57,18,,20,,5
2017/8/22,52,19,,22,,5
2017/8/23,54,30,,34,,7
2017/8/24,59,48,,36,,7
2017/8/25,84,36,,26,,5
2017/8/26,73,26,,14,,4
2017/8/27,65,22,,26,,5
2017/8/28,51,27,,29,,5
2017/8/29,51,32,,23,,4
2017/8/30,72,41,,37,,6
2017/8/31,73,28,,21,,5
2017/9/1,67,9,,16,,4
2017/9/2,34,15,,20,,5
2017/9/3,51,14,,17,,4
2017/9/4,46,14,,24,,7
2017/9/5,48,,,,,
2017/9/10,67,39,,28,,7
2017/9/11,88,23,,33,,8
2017/9/12,63,26,,24,,5
2017/9/13,52,18,,25,,5
2017/9/14,33,23,,26,,6
2017/9/15,49,26,,15,,4
2017/9/16,67,31,,18,,5
2017/9/17,82,21,,24,,6
2017/9/18,55,44,,38,,8
2017/9/19,90,27,,27,,6
2017/9/20,75,25,,28,,7
2017/9/21,72,23,,27,,8
2017/9/22,66,31,,13,,4
2017/9/23,76,33,,10,,4
2017/9/24,75,29,,13,,4
2017/9/25,70,49,,16,,5
2017/9/26,87,36,,16,,4
2017/9/27,72,27,,14,,3
2017/9/28,64,31,,14,,3
2017/9/29,68,34,,12,,4
2017/9/30,76,36,,10,,3
2017/4/4,68,57,,32,,5
2017/4/5,83,18,,28,,4
2017/4/6,49,44,,33,,6
2017/4/7,72,45,,24,,4
2017/4/8,68,52,,24,,5
2017/4/9,106,51,,31,,6
2017/4/10,94,46,,21,,3
2017/4/11,61,33,,29,,5
2017/4/12,84,19,,21,,4
2017/4/13,60,17,,19,,3
2017/4/14,54,32,,16,,4
2017/4/15,84,13,,12,,3
2017/4/16,44,14,,9,,3
2017/4/17,50,15,,10,,2
2017/4/18,50,24,,14,,3
2017/4/19,56,36,,22,,4
2017/4/20,64,59,,25,,5
2017/4/21,106,28,,14,,3
2017/4/22,57,24,,15,,4
2017/4/23,49,33,,25,,5
2017/4/24,61,43,,28,,6
2017/4/25,83,19,,36,,6
2017/4/26,63,25,,26,,5
2017/4/27,73,23,,23,,5
2017/4/28,73,28,,25,,6
2017/4/29,66,24,,13,,4
2017/4/30,69,13,,6,,3
2017/5/1,43,13,,6,,3
2017/5/2,44,19,,7,,3
2017/5/3,64,21,,14,,4
2017/5/4,63,30,,21,,5
2017/5/5,73,48,,23,,5
2017/5/6,83,36,,14,,5
2017/5/7,100,23,,27,,6
2017/5/8,59,25,,23,,5
2017/5/9,47,37,,31,,6
2017/5/10,75,26,,21,,5
2017/5/11,76,33,,14,,4
2017/5/12,81,36,,19,,5
2017/5/13,76,39,,26,,6
2017/5/14,84,52,,38,,7
2017/5/15,86,36,,28,,6
2017/5/16,65,35,,28,,5
2017/5/17,53,36,,26,,5
2017/5/18,59,32,,22,,4
2017/5/19,52,46,,24,,5
2017/5/20,63,46,,15,,4
2017/5/21,73,40,,29,,6
2017/5/22,51,45,,34,,6
2017/5/23,56,40,,40,,8
2017/5/24,79,33,,30,,6
2017/5/25,59,44,,21,,5
2017/5/26,71,43,,41,,13
2017/5/27,74,31,,29,,7
2017/5/28,53,41,,29,,6
2017/5/29,62,53,,34,,7
2017/5/30,68,50,,20,,5
2017/5/31,67,47,,26,,5
2017/6/1,62,46,,26,,5
2017/6/2,57,24,,13,,4
2017/6/3,33,25,,14,,5
2017/6/4,52,33,,27,,6
2017/6/5,58,26,,18,,4
2017/6/6,60,32,,24,,5
2017/6/7,51,42,,35,,7
2017/6/8,61,43,,40,,7
2017/6/9,64,34,,20,,5
2017/6/10,59,26,,20,,5
2017/6/11,48,35,,32,,7
2017/6/12,64,30,,14,,4
2017/6/13,53,27,,20,,5
2017/6/14,52,22,,15,,5
2017/6/15,49,29,,24,,6
2017/6/16,64,24,,17,,5
2017/6/17,52,24,,18,,5
2017/6/18,54,32,,25,,6
2017/6/19,54,37,,29,,6
2017/6/20,62,31,,25,,6
2017/6/21,46,40,,33,,7
2017/6/22,56,29,,28,,7
2017/6/23,68,24,,13,,5
2017/6/24,59,25,,16,,5
2017/6/25,56,23,,21,,6
2017/6/26,52,31,,33,,7
2017/6/27,58,22,,16,,6
2017/6/28,63,25,,26,,7
2017/6/29,61,20,,18,,5
2017/6/30,39,12,,10,,5
2017/1/2,110,28,,18,,6
2017/1/3,80,13,,15,,5
2017/1/4,46,33,,23,,6
2017/1/5,51,83,,15,,5
2017/1/6,80,57,,25,,9
2017/1/7,127,119,,31,,15
2017/1/8,186,107,,37,,16
2017/1/9,176,66,,21,,9
2017/1/10,164,80,,25,,11
2017/1/11,160,42,,22,,7
2017/1/12,107,49,,25,,10
2017/1/13,131,27,,19,,7
2017/1/14,84,45,,24,,9
2017/1/15,117,53,,31,,12
2017/1/16,133,69,,20,,11
2017/1/17,168,60,,32,,13
2017/1/18,150,47,,25,,8
2017/1/19,127,50,,20,,7
2017/1/20,139,32,,18,,7
2017/1/21,94,30,,18,,6
2017/1/22,94,65,,31,,10
2017/1/23,146,71,,20,,8
2017/1/24,168,37,,21,,6
2017/1/25,100,67,,36,,8
2017/1/26,128,93,,46,,11
2017/1/27,172,80,,24,,7
2017/1/28,173,55,,19,,3
2017/1/29,141,58,,25,,4
2017/1/30,149,61,,27,,5
2017/1/31,155,63,,24,,5
2017/2/1,159,74,,31,,8
2017/2/2,168,65,,27,,8
2017/2/3,162,40,,16,,3
2017/2/4,117,34,,12,,2
2017/2/5,103,37,,13,,2
2017/2/6,108,25,,15,,2
2017/2/7,79,16,,10,,2
2017/2/8,58,,,,,
2016/10/1,78,40,,29,,7
2016/10/2,91,31,,23,,9
2016/10/3,79,41,,16,,7
2016/10/4,42,11,,20,,8
2016/10/5,27,18,,22,,10
2016/10/6,49,34,,31,,10
2016/10/7,77,21,,17,,9
2016/10/8,63,24,,18,,9
2016/10/9,75,23,,22,,8
2016/10/10,70,12,,10,,9
2016/10/11,39,15,,9,,10
2016/10/12,48,29,,15,,25
2016/10/13,62,34,,20,,48
2016/10/14,78,30,,11,,4
2016/10/15,81,24,,10,,4
2016/10/16,69,26,16,19,,3
2016/10/17,64,33,,17,,4
2016/10/18,90,43,,16,,5
2016/10/19,115,40,,13,,4
2016/10/20,113,29,,18,,4
2016/10/21,85,26,,19,,6
2016/10/22,79,36,,16,,5
2016/10/23,98,32,,16,,5
2016/10/24,87,34,,24,,7
2016/10/25,94,38,,31,,8
2016/10/26,83,54,,37,,9
2016/10/27,111,43,,24,,6
2016/10/28,109,13,19,14,3,3
2016/10/29,42,12,,14,,3
2016/10/30,38,14,,16,,4
2016/10/31,45,18,,12,,5
2016/11/1,59,25,,15,,4
2016/11/2,60,20,,18,,4
2016/11/3,50,59,,30,,7
2016/11/4,89,47,,23,,7
2016/11/5,114,34,,22,,7
2016/11/6,97,36,,28,,7
2016/11/7,101,42,,23,,8
2016/11/8,107,38,,24,,10
2016/11/9,106,48,,27,,8
2016/11/10,117,35,,13,,6
2016/11/11,100,43,,16,,8
2016/11/12,112,38,,22,,8
2016/11/13,109,43,,73,,8
2016/11/14,108,54,18,117,2,8
2016/11/15,212,30,19,119,2,8
2016/11/16,201,31,,128,,5
2016/11/17,209,42,,133,,5
2016/11/18,214,41,,152,,6
2016/11/19,227,20,,134,,4
2016/11/20,214,30,,142,,4
2016/11/21,231,29,,140,,3
2016/11/22,233,46,,157,,5
2016/11/23,237,61,,173,,9
2016/11/24,283,47,,96,,9
2016/11/25,210,48,,20,,6
2016/11/26,116,25,,14,,5
2016/11/27,71,29,,23,,6
2016/11/28,51,30,,23,,7
2016/11/29,84,40,,30,,6
2016/11/30,99,34,,24,,9
2016/12/1,89,26,,25,,8
2016/12/2,69,14,,17,,6
2016/12/3,48,28,,18,,6
2016/12/4,80,49,,25,,8
2016/12/5,118,39,,27,,8
2016/12/6,104,44,,31,,10
2016/12/7,120,27,,18,,7
2016/12/8,78,30,,17,,8
2016/12/9,86,28,,13,,8
2016/12/10,83,23,,16,,8
2016/12/11,71,35,,21,,7
2016/12/12,48,92,,30,,9
2016/12/13,137,40,,23,,6
2016/12/14,107,30,,26,,6
2016/12/15,70,62,,38,,14
2016/12/16,137,61,,21,,9
2016/12/17,150,45,,16,,8
2016/12/18,122,46,,18,,7
2016/12/19,115,42,,25,,9
2016/12/20,111,48,,25,,11
2016/12/21,116,65,,28,,12
2016/12/22,156,47,,19,,8
2016/12/23,124,34,,14,,7
2016/12/24,94,20,,10,,5
2016/12/25,65,17,,7,,5
2016/12/26,55,10,,11,,4
2016/12/27,31,23,,21,,5
2016/12/28,39,39,,28,,8
2016/12/29,97,51,,20,,6
2016/12/30,133,49,,16,,6
2016/12/31,127,44,,15,,6
2017/1/1,114,44,,16,,6
2016/7/1,55,29,,30,,4
2016/7/2,58,20,,19,,3
2016/7/3,42,24,,25,,3
2016/7/4,36,30,,39,,5
2016/7/5,43,26,,17,,2
2016/7/6,35,18,,17,,3
2016/7/7,34,26,,32,,5
2016/7/8,44,22,,18,,3
2016/7/9,41,17,,21,,3
2016/7/10,35,24,,35,,4
2016/7/11,51,30,,41,,7
2016/7/12,63,24,,32,,6
2016/7/13,61,18,,19,,4
2016/7/14,46,12,,16,,3
2016/7/15,24,21,,23,,4
2016/7/16,45,21,,22,,4
2016/7/17,51,22,,28,,5
2016/7/18,44,20,,28,,5
2016/7/19,34,20,,31,,5
2016/7/20,28,30,,33,,5
2016/7/21,31,23,,31,,6
2016/7/22,38,23,,25,,5
2016/7/23,49,26,,18,,6
2016/7/24,61,32,,32,,6
2016/7/25,56,38,,45,,8
2016/7/26,63,34,,33,,7
2016/7/27,64,34,,39,,7
2016/7/28,69,30,,40,,7
2016/7/29,58,27,,27,,5
2016/7/30,55,24,,26,,5
2016/7/31,47,21,,31,,6
2016/8/1,45,25,,35,,6
2016/8/2,37,25,,35,,6
2016/8/3,57,28,,38,,7
2016/8/4,56,29,,26,,7
2016/8/5,61,21,,18,,5
2016/8/6,55,16,,16,,5
2016/8/7,32,25,,36,,6
2016/8/8,42,35,,38,,8
2016/8/9,60,19,,35,,8
2016/8/10,50,21,,27,,6
2016/8/11,39,26,,34,,6
2016/8/12,40,29,,21,,6
2016/8/13,60,20,,15,,6
2016/8/14,45,16,,16,,6
2016/8/15,25,24,,26,,6
2016/8/16,42,27,,31,,7
2016/8/17,41,32,,35,,7
2016/8/18,53,32,,38,,8
2016/8/19,62,34,,27,,9
2016/8/20,67,28,,24,,8
2016/8/21,67,25,,31,,8
2016/8/22,58,31,,30,,7
2016/8/23,63,26,,32,,8
2016/8/24,50,20,,29,,5
2016/8/25,44,26,,30,,5
2016/8/26,45,37,,39,,8
2016/8/27,63,33,,33,,6
2016/8/28,72,41,,32,,6
2016/8/29,64,27,,28,,5
2016/8/30,35,41,,38,,6
2016/8/31,54,39,,42,,7
2016/9/1,63,46,,50,,8
2016/9/2,67,45,,41,,7
2016/9/3,71,39,,35,,6
2016/9/4,67,21,,24,,6
2016/9/5,55,20,,23,,5
2016/9/6,34,48,,52,,11
2016/9/7,61,59,,58,,11
2016/9/8,90,60,,63,,11
2016/9/9,98,54,,50,,9
2016/9/10,96,55,,53,,12
2016/9/11,102,53,,40,,8
2016/9/12,79,53,,29,,8
2016/9/13,79,41,,26,,7
2016/9/14,49,51,,33,,7
2016/9/15,57,62,,35,,6
2016/9/16,73,36,,15,,4
2016/9/17,51,24,,9,,3
2016/9/18,33,44,,17,,4
2016/9/19,51,54,,34,,7
2016/9/20,65,37,,26,,7
2016/9/21,61,32,,30,,7
2016/9/22,61,48,,32,,7
2016/9/23,76,35,,26,,6
2016/9/24,75,21,,23,,6
2016/9/25,56,34,,19,,6
2016/9/26,58,42,,23,,7
2016/9/27,66,70,,36,,9
2016/9/28,131,49,,31,,6
2016/9/29,63,56,,38,,7
2016/9/30,73,39,,27,,9
2016/4/1,58,41,,34,,10
2016/4/2,63,40,,29,,8
2016/4/3,84,48,,34,,8
2016/4/4,82,59,,39,,8
2016/4/5,97,60,,37,,10
2016/4/6,119,50,,41,,10
2016/4/7,87,47,,38,,10
2016/4/8,78,32,,19,,7
2016/4/9,59,25,,16,,7
2016/4/10,62,32,,22,,8
2016/4/11,56,48,,31,,10
2016/4/12,99,67,,36,,11
2016/4/13,141,50,,36,,11
2016/4/14,92,54,,44,,11
2016/4/15,76,34,,28,,9
2016/4/16,76,36,,21,,9
2016/4/17,81,37,,29,,8
2016/4/18,52,44,,32,,9
2016/4/19,68,29,,27,,8
2016/4/20,42,38,,33,,9
2016/4/21,62,43,,28,,8
2016/4/22,55,45,,32,,9
2016/4/23,66,26,,23,,8
2016/4/24,48,38,,36,,10
2016/4/25,60,42,,38,,10
2016/4/26,71,21,,45,,12
2016/4/27,55,31,,40,,11
2016/4/28,60,30,,36,,10
2016/4/29,62,34,,20,,9
2016/4/30,70,32,,19,,9
2016/5/1,71,31,,24,,11
2016/5/2,71,30,,26,,11
2016/5/3,68,33,,30,,11
2016/5/4,63,38,,33,,10
2016/5/5,55,41,,35,,11
2016/5/6,57,39,,26,,11
2016/5/7,57,31,,25,,11
2016/5/8,63,31,,35,,12
2016/5/9,58,36,,38,,12
2016/5/10,61,40,,46,,13
2016/5/11,64,35,,33,,13
2016/5/12,62,37,,37,,14
2016/5/13,65,27,,28,,13
2016/5/14,58,24,,17,,10
2016/5/15,40,26,,25,,10
2016/5/16,46,25,,33,,11
2016/5/17,49,38,,38,,12
2016/5/18,63,36,,39,,14
2016/5/19,69,58,,59,,14
2016/5/20,81,54,40,35,1,12
2016/5/21,77,37,,32,,14
2016/5/22,70,37,,28,,14
2016/5/23,66,36,,24,,13
2016/5/24,45,49,,36,,14
2016/5/25,63,34,,20,,13
2016/5/26,69,40,,27,,13
2016/5/27,80,24,,22,,14
2016/5/28,52,26,,20,,14
2016/5/29,53,30,,21,,14
2016/5/30,56,34,,21,,15
2016/5/31,68,26,,22,,9
2016/6/1,59,24,,20,,4
2016/6/2,50,30,,30,,4
2016/6/3,51,34,,24,,4
2016/6/4,62,21,,16,,3
2016/6/5,33,21,,18,,3
2016/6/6,26,42,,40,,5
2016/6/7,47,42,,52,,5
2016/6/8,48,34,,36,,6
2016/6/9,52,31,,38,,5
2016/6/10,46,21,,23,,4
2016/6/11,26,16,,19,,4
2016/6/12,32,19,,24,,5
2016/6/13,31,27,,24,,5
2016/6/14,45,36,,38,,7
2016/6/15,59,23,,36,,6
2016/6/16,44,28,,24,,5
2016/6/17,42,29,,27,,5
2016/6/18,41,28,,33,,6
2016/6/19,52,25,,30,,6
2016/6/20,63,31,,38,,5
2016/6/21,56,34,,43,,6
2016/6/22,53,34,,35,,6
2016/6/23,58,34,,32,,7
2016/6/24,64,36,,20,,7
2016/6/25,68,33,,20,,6
2016/6/26,61,25,,31,,6
2016/6/27,36,39,,42,,7
2016/6/28,56,40,,49,,7
2016/6/29,66,39,,54,,7
2016/6/30,59,32,,44,,6
2016/1/4,147,76,,21,,12
2016/1/5,167,64,,11,,10
2016/1/6,161,55,,14,,11
2016/1/7,148,53,,18,,11
2016/1/8,142,34,,14,,9
2016/1/9,97,44,,18,,12
2016/1/10,124,48,,21,,14
2016/1/11,125,48,,16,,13
2016/1/12,128,33,,15,,10
2016/1/13,96,23,,15,,8
2016/1/14,74,56,,25,,8
2016/1/15,151,36,,20,,5
2016/1/16,98,70,,24,,8
2016/1/17,169,66,,30,,10
2016/1/18,164,54,,23,,7
2016/1/19,149,63,,22,,9
2016/1/20,161,30,,20,,6
2016/1/21,91,37,,21,,6
2016/1/22,101,70,,38,,13
2016/1/23,160,69,,26,,12
2016/1/24,155,42,,26,,10
2016/1/25,98,43,,25,,10
2016/1/26,105,33,,26,,8
2016/1/27,86,22,,21,,6
2016/1/28,52,35,,27,,7
2016/1/29,71,31,,20,,7
2016/1/30,62,18,,12,,5
2016/1/31,47,27,,24,,7
2016/2/1,64,15,,18,,6
2016/2/2,43,20,,17,,5
2016/2/3,43,23,,20,,6
2016/2/4,58,36,,21,,6
2016/2/5,73,44,,23,,8
2016/2/6,108,41,,19,,7
2016/2/7,86,35,,26,,8
2016/2/8,78,37,,27,,7
2016/2/9,53,21,,29,,8
2016/2/10,58,25,,22,,7
2016/2/11,66,31,,28,,8
2016/2/12,76,35,,23,,7
2016/2/13,87,44,,24,,8
2016/2/14,106,49,,31,,10
2016/2/15,116,31,,28,,9
2016/2/16,68,29,,19,,7
2016/2/17,64,40,,24,,9
2016/2/18,95,29,,25,,9
2016/2/19,78,38,,22,,8
2016/2/20,101,19,,18,,7
2016/2/21,58,9,,19,,6
2016/2/22,26,29,,31,,8
2016/2/23,70,32,,25,,7
2016/2/24,72,41,,35,,10
2016/2/25,83,55,,39,,11
2016/2/26,132,57,,28,,10
2016/2/27,136,51,,28,,9
2016/2/28,122,45,,20,,7
2016/2/29,111,26,,25,,8
2016/3/1,71,36,,30,,9
2016/3/2,92,46,,27,,9
2016/3/3,101,35,,23,,8
2016/3/4,85,45,,20,,8
2016/3/5,108,36,,24,,8
2016/3/6,92,45,,32,,10
2016/3/7,95,48,,38,,10
2016/3/8,93,49,,33,,11
2016/3/9,103,32,,21,,8
2016/3/10,69,25,,16,,9
2016/3/11,64,33,,15,,9
2016/3/12,77,28,,18,,7
2016/3/13,61,59,,32,,9
2016/3/14,110,28,,23,,8
2016/3/15,61,49,,33,,9
2016/3/16,72,55,,27,,9
2016/3/17,105,54,,26,,9
2016/3/18,85,36,,19,,7
2016/3/19,47,38,,14,,8
2016/3/20,87,45,,23,,9
2016/3/21,82,27,,30,,10
2016/3/22,65,34,,31,,10
2016/3/23,67,51,,33,,11
2016/3/24,83,79,,44,,13
2016/3/25,140,47,,23,,12
2016/3/26,126,49,,18,,10
2016/3/27,115,42,,17,,9
2016/3/28,97,42,,26,,10
2016/3/29,82,28,,32,,11
2016/3/30,61,41,,35,,10
2016/3/31,85,28,,29,,8
2015/10/1,106,58,19,23,5,3
2015/10/2,93,32,29,24,4,5
2015/10/3,79,21,29,18,4,4
2015/10/4,65,40,43,25,1,5
2015/10/5,104,37,10,17,,6
2015/10/6,97,11,20,13,9,3
2015/10/7,24,13,12,18,4,4
2015/10/8,38,18,21,19,1,5
2015/10/9,50,42,32,19,3,6
2015/10/10,96,19,25,16,2,7
2015/10/11,70,20,21,12,2,4
2015/10/12,55,25,17,17,2,7
2015/10/13,83,,21,17,1,8
2015/10/14,113,44,33,18,2,7
2015/10/15,112,49,25,20,2,8
2015/10/16,119,,11,18,3,10
2015/10/17,93,25,14,10,1,8
2015/10/18,83,26,11,13,1,9
2015/10/19,79,36,8,20,3,11
2015/10/20,113,27,8,7,2,7
2015/10/21,84,16,10,15,1,8
2015/10/22,71,15,19,10,2,8
2015/10/23,57,13,16,10,2,7
2015/10/24,44,29,9,9,1,8
2015/10/25,88,30,15,17,,9
2015/10/26,84,50,3,27,1,16
2015/10/27,136,26,20,21,1,11
2015/10/28,80,26,13,19,3,13
2015/10/29,77,54,9,23,4,13
2015/10/30,142,54,12,19,1,14
2015/10/31,142,45,24,14,4,12
2015/11/1,126,34,17,19,5,12
2015/11/2,87,84,3,30,2,18
2015/11/3,172,56,9,23,2,16
2015/11/4,144,44,3,19,1,15
2015/11/5,111,49,6,19,,17
2015/11/6,133,61,4,16,1,16
2015/11/7,156,26,25,5,1,8
2015/11/8,61,16,11,14,2,3
2015/11/9,54,12,15,8,1,2
2015/11/10,45,5,13,4,,2
2015/11/11,20,15,17,9,1,2
2015/11/12,54,25,7,13,3,5
2015/11/13,76,14,25,7,,3
2015/11/14,43,12,20,11,,4
2015/11/15,48,25,15,14,1,4
2015/11/16,78,32,6,14,1,5
2015/11/17,94,8,27,9,1,4
2015/11/18,41,,19,10,1,3
2015/11/19,38,14,19,14,,4
2015/11/20,46,20,9,12,1,5
2015/11/21,97,32,12,12,1,6
2015/11/22,99,21,12,18,2,6
2015/11/23,102,31,8,18,2,7
2015/11/24,103,46,11,23,3,9
2015/11/25,130,53,3,22,2,10
2015/11/26,156,42,3,22,2,12
2015/11/27,124,38,5,13,4,9
2015/11/28,112,32,16,9,2,6
2015/11/29,96,5,26,8,2,6
2015/11/30,27,12,21,11,2,6
2015/12/1,49,20,13,12,1,1
2015/12/2,65,32,12,19,2,
2015/12/3,90,37,17,17,4,5
2015/12/4,94,22,15,10,2,8
2015/12/5,69,17,20,8,1,7
2015/12/6,60,26,17,12,1,9
2015/12/7,74,45,6,23,1,12
2015/12/8,107,42,4,17,,12
2015/12/9,112,36,12,18,2,10
2015/12/10,96,41,11,18,5,11
2015/12/11,109,20,19,10,2,9
2015/12/12,68,14,19,8,4,10
2015/12/13,53,19,19,19,2,11
2015/12/14,55,57,5,22,5,15
2015/12/15,144,48,5,15,2,13
2015/12/16,133,36,3,14,2,13
2015/12/17,104,30,1,12,1,10
2015/12/18,84,38,9,13,1,12
2015/12/19,95,36,11,12,3,13
2015/12/20,98,27,7,13,4,13
2015/12/21,79,16,24,9,4,3
2015/12/22,48,15,20,10,1,3
2015/12/23,50,29,14,12,1,3
2015/12/24,83,30,18,6,3,3
2015/12/25,91,12,23,3,1,2
2015/12/26,47,16,21,8,1,3
2015/12/27,53,15,18,12,1,3
2015/12/28,49,24,,17,,5
2015/12/29,60,35,,23,,6
2015/12/30,85,,,,,
2015/7/1,35,,29,4,2,4
2015/7/2,57,,21,13,,5
2015/7/4,60,22,21,24,1,1
2015/7/5,53,26,56,19,3,2
2015/7/6,61,,,,,
2015/7/10,14,,24,5,,
2015/7/12,27,11,25,10,,3
2015/7/13,43,14,35,3,1,2
2015/7/14,45,20,40,8,3,4
2015/7/15,46,15,37,11,3,3
2015/7/16,39,34,,34,,5
2015/7/17,58,,71,16,5,3
2015/7/18,51,26,,14,,3
2015/7/19,69,,40,3,,
2015/7/22,64,,49,4,,
2015/7/25,41,16,24,2,,1
2015/7/26,33,14,37,5,1,1
2015/7/27,36,12,30,4,,1
2015/7/28,27,11,36,4,2,
2015/7/29,27,8,32,3,1,
2015/7/30,19,7,,3,,
2015/7/31,18,12,42,3,,
2015/8/1,34,19,22,3,1,
2015/8/2,41,22,54,13,2,
2015/8/3,52,33,63,5,3,
2015/8/4,58,32,28,10,1,
2015/8/5,63,,78,5,2,
2015/8/6,59,,78,13,6,
2015/8/7,71,28,82,10,4,
2015/8/8,59,,,,,
2015/8/17,41,,,,,
2015/8/19,37,21,26,9,1,2
2015/8/20,38,33,29,19,,4
2015/8/21,48,,26,19,,3
2015/8/23,68,43,23,16,,2
2015/8/24,85,,28,14,1,2
2015/8/25,68,,43,16,,3
2015/8/26,48,23,44,28,,6
2015/8/27,54,26,45,15,2,4
2015/8/28,64,21,36,12,1,4
2015/8/29,43,14,41,18,2,6
2015/8/30,39,24,58,29,2,7
2015/8/31,56,25,62,26,2,6
2015/9/1,64,18,28,21,2,6
2015/9/2,41,23,33,24,2,7
2015/9/3,61,26,25,24,1,6
2015/9/4,64,21,30,11,1,5
2015/9/5,54,12,25,8,2,4
2015/9/6,33,3,81,7,1,5
2015/9/7,15,4,18,10,1,6
2015/9/8,32,12,19,17,3,7
2015/9/9,35,13,32,21,,7
2015/9/10,36,15,26,17,,8
2015/9/11,49,14,17,11,,4
2015/9/12,47,21,20,11,,4
2015/9/13,66,21,20,12,1,4
2015/9/14,64,28,31,23,2,5
2015/9/15,71,19,21,22,1,5
2015/9/16,53,76,40,20,2,6
2015/9/17,68,15,28,11,1,3
2015/9/18,36,21,24,21,3,2
2015/9/19,59,28,24,19,1,3
2015/9/20,77,13,25,10,,3
2015/9/21,44,18,15,15,1,2
2015/9/22,57,25,26,19,2,4
2015/9/23,64,38,28,34,3,3
2015/9/24,84,24,26,21,1,3
2015/9/25,71,,,21,,1
2015/9/27,23,9,17,19,1,2
2015/9/28,26,12,15,17,2,2
2015/9/29,35,14,19,21,,2
2015/9/30,30,50,24,25,2,4
2015/4/2,45,14,27,7,1,
2015/4/3,48,14,27,5,2,
2015/4/4,58,9,18,5,3,
2015/4/5,43,16,28,3,1,
2015/4/6,36,27,25,19,,
2015/4/7,80,,,,,
2015/4/9,38,,29,11,4,
2015/4/11,97,58,6,11,2,
2015/4/12,124,,25,6,2,1
2015/4/17,62,39,29,15,16,2
2015/4/18,64,,21,9,,5
2015/4/20,34,10,31,15,,4
2015/4/21,22,45,31,12,3,5
2015/4/22,63,,34,17,6,6
2015/4/23,155,,3,11,6,6
2015/4/24,49,,24,,,6
2015/4/29,36,,17,27,,3
2015/5/2,52,27,28,15,1,3
2015/5/3,76,,40,19,1,4
2015/5/5,80,15,37,24,1,7
2015/5/6,53,17,22,12,1,8
2015/5/7,49,19,38,20,2,5
2015/5/8,41,19,26,20,1,5
2015/5/9,53,18,17,12,1,6
2015/5/10,59,,37,12,2,7
2015/5/11,26,22,33,18,2,7
2015/5/12,58,,33,8,2,8
2015/5/14,41,20,37,13,,9
2015/5/15,55,,26,15,,7
2015/5/17,34,11,35,12,1,7
2015/5/18,35,25,32,26,3,7
2015/5/19,64,19,42,28,3,10
2015/5/20,91,,47,24,,8
2015/5/22,39,27,38,21,2,5
2015/5/23,73,20,36,14,1,6
2015/5/24,63,28,16,12,,5
2015/5/25,72,19,22,17,1,3
2015/5/26,56,7,29,13,18,6
2015/5/27,21,11,25,12,,3
2015/5/28,27,27,13,17,3,2
2015/5/29,62,17,43,14,,4
2015/5/30,49,8,41,7,1,4
2015/5/31,27,21,40,17,3,3
2015/6/1,51,14,42,14,5,4
2015/6/2,32,19,38,12,3,4
2015/6/3,32,9,45,7,1,3
2015/6/4,23,5,39,8,1,3
2015/6/5,19,15,45,14,1,3
2015/6/6,27,20,27,12,,2
2015/6/7,52,23,30,15,3,3
2015/6/8,30,,41,18,3,3
2015/6/10,43,,14,25,3,4
2015/6/12,50,14,39,12,2,6
2015/6/13,52,17,43,11,6,3
2015/6/14,52,22,38,28,,3
2015/6/15,66,12,21,11,3,5
2015/6/16,22,12,37,14,1,2
2015/6/17,27,,37,17,3,3
2015/6/18,37,19,44,9,6,4
2015/6/19,67,10,24,10,4,3
2015/6/20,32,10,18,6,,4
2015/6/21,39,11,28,10,,3
2015/6/22,43,11,32,12,2,4
2015/6/23,38,11,26,9,1,5
2015/6/24,34,11,23,10,2,4
2015/6/25,31,21,26,14,2,2
2015/6/26,54,33,30,12,,2
2015/6/27,102,15,21,18,1,2
2015/6/28,44,19,33,11,1,3
2015/6/29,62,14,22,14,,3
2015/6/30,39,10,40,17,5,3
2015/1/2,72,,19,11,6,5
2015/1/5,50,,18,6,2,5
2015/1/7,93,53,14,19,16,8
2015/1/8,112,15,,30,2,9
2015/1/9,57,10,34,8,7,3
2015/1/10,42,12,35,5,3,3
2015/1/11,41,,24,2,,3
2015/1/13,39,11,18,9,3,4
2015/1/14,45,16,21,10,6,4
2015/1/15,58,22,13,13,2,4
2015/1/16,111,,12,19,4,7
2015/1/17,95,47,12,21,6,7
2015/1/18,130,,,21,,4
2015/1/22,115,17,11,7,2,
2015/1/23,62,,6,7,2,6
2015/1/26,89,32,21,26,3,8
2015/1/27,97,26,11,27,8,9
2015/1/28,83,,17,10,5,7
2015/1/30,119,31,14,17,4,8
2015/1/31,97,29,15,14,2,5
2015/2/1,90,52,15,18,2,4
2015/2/2,154,,9,44,8,8
2015/2/3,167,33,13,39,10,7
2015/2/4,122,71,9,23,10,7
2015/2/5,156,32,10,14,6,15
2015/2/6,93,,22,9,4,6
2015/2/8,36,20,39,12,1,3
2015/2/9,67,,22,5,2,9
2015/2/11,63,,17,11,2,6
2015/2/13,154,,,39,,8
2015/2/16,43,27,26,3,5,2
2015/2/17,67,41,28,4,3,2
2015/2/18,116,44,22,12,3,8
2015/2/19,118,49,16,13,3,6
2015/2/20,138,42,8,12,4,4
2015/2/21,123,,25,14,8,4
2015/2/25,140,39,21,33,8,
2015/2/26,114,31,17,23,3,1
2015/2/27,108,63,7,33,4,
2015/2/28,148,38,11,40,4,1
2015/3/1,119,16,21,35,3,
2015/3/2,59,12,16,16,1,3
2015/3/3,58,18,23,8,4,1
2015/3/4,63,35,22,6,2,
2015/3/5,96,33,16,15,4,
2015/3/6,92,31,20,9,2,
2015/3/7,94,57,24,8,2,
2015/3/8,153,22,,26,,7
2015/3/9,66,64,32,12,4,2
2015/3/10,144,72,35,20,6,9
2015/3/11,147,,26,27,2,15
2015/3/13,44,16,9,10,1,5
2015/3/14,56,16,14,5,2,
2015/3/15,57,27,,3,1,8
2015/3/16,72,28,24,4,1,5
2015/3/17,76,,26,9,3,3
2015/3/19,116,73,20,20,2,3
2015/3/20,149,,29,21,6,1
2015/3/22,44,,30,3,2,2
2015/3/25,136,59,44,9,5,1
2015/3/26,150,42,23,13,5,1
2015/3/27,111,,7,10,2,2
2015/3/29,89,,29,6,1,
2015/3/31,30,,20,6,2,
2014/10/7,89,32,19,19,4,9
2014/10/8,80,,19,20,2,10
2014/10/14,88,18,15,13,3,8
2014/10/15,73,,15,13,1,10
2014/10/16,62,39,9,24,2,15
2014/10/17,87,21,5,7,1,9
2014/10/18,66,22,26,7,1,7
2014/10/19,71,8,23,4,,4
2014/10/20,29,,19,4,3,1
2014/10/23,56,14,22,9,,2
2014/10/24,47,,15,15,8,4
2014/10/27,121,40,20,27,4,8
2014/10/28,108,33,25,25,5,7
2014/10/29,90,60,7,18,2,8
2014/10/30,158,,14,16,,6
2014/11/2,129,26,15,18,1,9
2014/11/3,76,35,19,24,3,10
2014/11/4,82,25,22,14,1,9
2014/11/5,71,34,17,19,2,8
2014/11/6,88,41,9,20,2,11
2014/11/7,112,21,9,14,3,12
2014/11/8,70,15,9,11,,11
2014/11/9,53,34,9,17,1,13
2014/11/10,95,37,17,12,2,13
2014/11/11,100,35,9,10,2,9
2014/11/12,99,38,11,9,3,2
2014/11/13,107,35,17,12,,7
2014/11/14,94,34,10,7,3,2
2014/11/15,96,,,,,
2014/11/17,66,18,5,3,1,5
2014/11/18,58,,,,,
2014/11/21,85,,,,,
2014/11/23,93,20,16,6,,9
2014/11/24,66,32,5,23,2,19
2014/11/25,89,33,3,16,5,16
2014/11/26,97,41,,20,,19
2014/11/27,119,25,14,15,1,19
2014/11/28,78,38,11,14,,19
2014/11/29,106,35,12,12,2,16
2014/11/30,102,25,26,13,2,15
2014/12/1,77,28,18,16,2,9
2014/12/2,87,32,13,23,8,7
2014/12/3,97,48,9,18,3,10
2014/12/4,131,37,,17,,8
2014/12/5,106,24,,13,16,4
2014/12/6,72,,,12,6,
2014/12/7,189,,11,6,1,6
2014/12/9,109,72,,26,5,11
2014/12/10,165,35,7,17,4,5
2014/12/11,104,28,,18,8,2
2014/12/12,75,17,20,13,3,3
2014/12/13,50,38,5,23,7,6
2014/12/14,107,49,6,15,3,7
2014/12/15,134,44,10,13,1,7
2014/12/16,124,21,10,12,4,3
2014/12/17,66,37,8,17,4,5
2014/12/18,105,15,9,10,4,4
2014/12/19,56,6,29,7,1,2
2014/12/20,26,,,4,6,1
2014/12/22,27,,1,6,3,3
2014/12/25,28,11,16,7,,4
2014/12/26,46,25,13,14,11,5
2014/12/27,89,,,24,,4
2014/7/1,53,,40,16,,3
2014/7/2,41,,15,15,2,3
2014/7/3,99,,,39,1,5
2014/7/5,71,19,49,3,1,
2014/7/6,56,,,,,
2014/7/9,54,23,22,4,,4
2014/7/10,60,,30,,,
2014/7/11,25,,,,,
2014/7/14,44,,,,,
2014/7/17,50,32,,18,1,7
2014/7/18,57,,,5,1,
2014/7/21,33,,,,,
2014/7/24,56,19,16,3,1,5
2014/7/25,55,18,47,3,1,
2014/7/26,47,28,30,4,2,
2014/7/27,68,,,,,
2014/7/31,60,12,20,21,1,8
2014/8/1,40,,11,22,,8
2014/8/3,53,30,61,19,1,7
2014/8/4,63,17,15,15,,7
2014/8/6,22,12,46,29,,9
2014/8/7,30,,35,34,,10
2014/8/12,52,15,11,27,1,10
2014/8/13,42,10,28,11,,6
2014/8/14,30,17,17,11,2,7
2014/8/15,53,,,12,,7
2014/8/18,30,10,27,13,,7
2014/8/20,37,20,21,27,,8
2014/8/21,53,14,36,17,2,9
2014/8/22,43,14,43,15,,8
2014/8/23,41,22,30,18,1,9
2014/8/24,67,9,33,11,3,7
2014/8/25,25,13,16,18,1,6
2014/8/26,44,14,23,15,1,4
2014/8/27,44,9,27,16,4,3
2014/8/28,31,9,40,22,,4
2014/8/29,31,20,36,14,1,3
2014/8/30,57,17,29,14,,3
2014/8/31,57,18,15,14,1,4
2014/9/1,58,8,27,13,1,3
2014/9/2,30,13,26,11,1,5
2014/9/3,35,11,29,14,5,5
2014/9/4,34,29,33,19,2,5
2014/9/5,53,20,39,25,2,6
2014/9/6,86,23,42,23,1,6
2014/9/7,75,24,48,13,1,5
2014/9/8,60,26,24,15,,6
2014/9/9,72,43,3,16,2,5
2014/9/10,89,,25,26,,8
2014/9/12,62,23,34,19,1,6
2014/9/13,56,,18,19,,6
2014/9/16,41,17,29,13,,4
2014/9/17,43,22,40,27,4,7
2014/9/18,52,36,,26,2,8
2014/9/19,74,39,34,21,2,7
2014/9/20,96,,14,11,1,7
2014/9/21,102,16,,9,,3
2014/9/22,52,15,21,10,2,3
2014/9/23,56,11,23,11,1,4
2014/9/24,36,15,14,13,3,5
2014/9/25,56,33,21,15,2,5
2014/9/26,75,20,23,9,2,5
2014/9/27,62,15,27,4,,3
2014/9/28,49,53,18,22,4,7
2014/9/29,103,78,1,33,4,10
2014/9/30,148,,,,,
2014/4/1,47,14,30,20,1,5
2014/4/2,128,36,33,20,5,7
2014/4/3,73,29,19,36,4,7
2014/4/4,79,35,36,20,1,5
2014/4/5,33,26,34,17,5,5
2014/4/6,62,22,30,17,11,5
2014/4/8,72,17,26,12,1,4
2014/4/9,57,19,28,11,1,4
2014/4/10,54,30,18,28,10,8
2014/4/11,87,49,18,29,2,10
2014/4/12,126,31,33,15,2,7
2014/4/13,91,20,23,12,1,6
2014/4/14,66,9,28,21,18,7
2014/4/16,65,24,32,23,1,8
2014/4/17,67,91,33,36,3,11
2014/4/18,180,29,40,14,1,7
2014/4/19,69,17,30,10,,7
2014/4/21,58,21,24,30,1,10
2014/4/22,60,14,41,24,,6
2014/4/23,48,25,20,8,,8
2014/4/24,49,19,35,10,,8
2014/4/25,44,19,28,4,,3
2014/4/26,69,16,,8,1,3
2014/4/27,57,20,22,17,1,11
2014/4/28,62,26,15,33,,7
2014/4/29,76,54,45,40,1,7
2014/4/30,102,35,51,21,,4
2014/5/1,81,12,,13,,3
2014/5/2,40,8,,12,,3
2014/5/3,28,,36,15,,3
2014/5/6,26,23,35,21,2,4
2014/5/7,62,,36,9,,4
2014/5/8,58,15,21,16,,4
2014/5/9,54,,33,11,,3
2014/5/10,36,,14,14,,4
2014/5/11,77,10,22,11,2,3
2014/5/12,37,10,24,14,1,3
2014/5/13,35,16,32,28,,5
2014/5/14,50,37,33,13,,5
2014/5/15,47,17,26,17,,6
2014/5/16,48,18,22,16,,6
2014/5/17,54,20,35,16,,6
2014/5/18,59,13,35,21,,5
2014/5/19,42,20,49,27,1,5
2014/5/20,50,21,56,30,,5
2014/5/21,52,17,45,23,1,5
2014/5/22,43,26,,26,2,5
2014/5/23,45,24,47,15,1,4
2014/5/24,55,29,24,12,1,2
2014/5/25,63,28,44,20,,5
2014/5/26,75,18,37,20,,4
2014/5/27,52,32,17,21,,5
2014/5/28,63,15,16,15,7,4
2014/5/29,31,9,14,7,2,2
2014/5/30,33,,,,,
2014/6/1,23,7,19,19,13,5
2014/6/2,26,17,21,12,,4
2014/6/3,56,17,17,25,,7
2014/6/5,45,17,35,28,1,6
2014/6/7,61,37,59,18,,4
2014/6/8,72,34,25,33,1,6
2014/6/9,80,,39,36,1,4
2014/6/11,31,22,37,29,2,3
2014/6/12,46,30,30,9,,2
2014/6/13,28,9,24,10,,2
2014/6/14,29,24,24,9,,2
2014/6/15,45,10,37,22,,3
2014/6/16,30,29,33,19,,4
2014/6/17,61,,35,15,,6
2014/6/19,27,14,24,8,2,5
2014/6/20,32,15,25,7,,1
2014/6/21,41,7,26,3,,1
2014/6/22,26,11,,8,1,1
2014/6/23,26,22,29,9,1,1
2014/6/24,41,,,,,
2014/6/26,35,,,7,,
2014/6/29,70,28,21,30,10,7
2014/6/30,76,18,,15,,3
2014/1/2,139,74,8,15,4,6
2014/1/3,149,64,5,17,3,8
2014/1/4,155,61,8,16,3,9
2014/1/5,125,46,15,10,4,9
2014/1/6,60,31,17,10,2,5
2014/1/8,136,38,2,18,3,6
2014/1/11,73,25,21,13,2,5
2014/1/13,54,21,22,18,3,6
2014/1/14,83,52,,28,2,10
2014/1/15,119,45,8,20,3,9
2014/1/16,92,56,14,14,4,10
2014/1/17,155,52,9,20,3,10
2014/1/18,146,65,4,16,4,10
2014/1/19,73,34,15,9,,7
2014/1/20,65,27,18,16,1,9
2014/1/21,62,29,17,15,8,9
2014/1/22,123,50,14,25,5,11
2014/1/23,170,91,13,32,4,15
2014/1/24,114,56,25,23,5,12
2014/1/25,137,40,17,15,2,10
2014/1/26,125,33,15,14,7,11
2014/1/27,77,31,25,19,8,7
2014/1/28,68,29,22,19,7,6
2014/1/29,61,24,23,16,4,5
2014/1/30,103,29,27,20,4,6
2014/1/31,61,34,27,21,18,5
2014/2/1,104,41,28,20,8,7
2014/2/2,105,46,28,23,14,7
2014/2/3,160,74,16,29,10,11
2014/2/4,168,81,32,48,10,13
2014/2/5,156,76,31,53,9,13
2014/2/6,161,64,21,28,13,9
2014/2/7,164,71,24,30,7,11
2014/2/8,95,43,17,20,5,9
2014/2/9,115,62,14,23,4,12
2014/2/10,152,57,15,27,2,12
2014/2/11,150,47,18,28,4,11
2014/2/12,173,72,,24,4,15
2014/2/13,117,55,18,22,2,12
2014/2/14,131,43,17,18,3,10
2014/2/15,113,45,22,14,4,8
2014/2/16,124,40,20,12,3,4
2014/2/17,68,33,15,17,2,4
2014/2/18,123,52,17,23,3,5
2014/2/19,135,65,8,21,6,7
2014/2/20,95,61,15,17,4,6
2014/2/21,144,59,15,16,4,6
2014/2/22,151,57,20,12,3,5
2014/2/23,152,55,32,27,3,8
2014/2/24,136,54,14,22,3,9
2014/2/25,102,44,13,20,2,7
2014/2/26,71,61,15,20,4,9
2014/2/27,161,68,17,18,6,9
2014/2/28,130,54,13,17,5,8
2014/3/1,142,46,11,20,4,12
2014/3/2,126,27,18,19,2,10
2014/3/4,89,28,22,19,1,10
2014/3/5,83,21,13,18,1,9
2014/3/9,139,53,33,26,3,7
2014/3/10,108,44,12,35,5,8
2014/3/12,100,40,,26,3,6
2014/3/13,102,45,30,25,5,7
2014/3/14,127,53,28,22,5,5
2014/3/15,66,24,29,3,1,5
2014/3/19,93,32,16,5,1,4
2014/3/20,71,24,26,17,1,3
2014/3/21,50,17,37,16,3,3
2014/3/24,59,10,23,16,,4
2014/3/25,49,14,28,22,1,4
2014/3/26,105,39,32,20,3,7
2014/3/27,95,31,14,18,3,7
2014/3/30,116,50,46,29,3,8
2014/3/31,121,53,43,29,4,8
2020/10/8,,32,,22,,8
2020/3/31,,41,,13,,2
2019/12/31,,21,,6,,3
2019/9/15,,5,,16,,4
2019/4/30,,33,,21,,7
2019/6/20,,28,,22,,4
2018/12/31,,18,,9,,6
2018/5/16,,19,,19,,5
2017/12/31,,33,,15,,8
2017/10/12,,39,,19,,3
2017/9/9,,25,,17,,6
2017/4/3,,31,,17,,3
2016/1/3,,59,,17,,9
2015/7/3,,23,36,14,3,2
2015/7/9,,8,26,4,,3
2015/7/11,,9,25,7,1,2
2015/7/21,,22,41,2,1,
2015/7/24,,11,42,8,7,
2015/8/16,,24,,9,,2
2015/8/18,,24,32,12,1,3
2015/8/22,,33,35,11,,2
2015/9/26,,6,,13,,1
2015/4/1,,12,24,7,1,
2015/4/8,,13,,,1,
2015/4/10,,49,33,39,5,
2015/4/16,,39,,19,3,
2015/4/19,,19,,13,,5
2015/4/28,,8,23,12,,6
2015/5/1,,15,,8,2,4
2015/5/4,,31,23,23,2,5
2015/5/13,,15,41,25,,5
2015/5/16,,14,13,7,5,7
2015/5/21,,14,,22,3,4
2015/6/9,,26,22,22,1,4
2015/6/11,,22,24,35,6,4
2015/1/1,,18,16,21,16,5
2015/1/4,,10,27,4,5,4
2015/1/6,,63,22,9,5,6
2015/1/12,,10,28,6,6,3
2015/1/25,,30,14,24,13,8
2015/1/29,,40,,16,,7
2015/2/7,,11,16,5,4,
2015/2/10,,19,,,,
2015/2/12,,65,,,,
2015/2/15,,15,23,8,8,5
2015/3/12,,14,,,,
2015/3/18,,46,,,,
2015/3/21,,13,11,13,5,
2015/3/24,,50,,,,
2015/3/28,,30,21,6,2,
2015/3/30,,7,,,,
2014/10/6,,36,25,24,1,10
2014/10/13,,34,18,14,1,8
2014/10/22,,16,17,3,1,1
2014/10/26,,49,6,18,2,8
2014/11/1,,45,10,7,3,7
2014/11/16,,21,11,6,,8
2014/11/20,,30,1,10,1,6
2014/11/22,,32,20,6,2,7
2014/12/8,,38,8,14,3,6
2014/12/21,,6,17,8,5,3
2014/12/24,,7,25,5,2,2
2014/7/4,,26,27,10,1,1
2014/7/8,,22,33,4,,3
2014/7/13,,14,45,4,2,
2014/7/16,,22,23,25,1,7
2014/7/20,,13,41,2,,4
2014/7/23,,25,,11,,2
2014/7/30,,21,,22,,8
2014/8/2,,27,47,16,1,7
2014/8/5,,7,39,14,1,8
2014/8/11,,14,29,15,2,7
2014/8/17,,16,32,13,1,7
2014/8/19,,12,40,10,1,7
2014/9/11,,26,42,23,1,7
2014/9/15,,14,29,17,1,5
2014/4/7,,31,39,22,2,6
2014/4/15,,21,22,23,1,7
2014/4/20,,18,33,14,,7
2014/5/4,,6,28,20,,3
2014/5/5,,9,42,21,1,4
2014/5/31,,9,29,19,1,4
2014/6/4,,14,47,24,1,6
2014/6/6,,30,50,19,,5
2014/6/18,,12,40,7,,10
2014/6/25,,10,21,6,1,2
2014/6/28,,23,8,15,1,3
2014/1/1,,55,13,12,2,5
2014/1/7,,41,7,20,1,7
2014/1/9,,40,,21,,7
2014/1/10,,14,27,2,4,4
2014/1/12,,14,24,7,,4
2014/3/3,,8,29,23,2,9
2014/3/6,,12,21,20,1,9
2014/3/7,,28,11,20,3,10
2014/3/16,,3,26,2,3,2
2014/3/17,,14,27,1,1,2
2015/8/15,,,35,3,2,2
2015/4/13,,,19,,,
2015/4/14,,,33,7,1,
2015/4/15,,,25,10,2,
2015/1/3,,,21,6,4,4
2015/2/23,,,12,14,5,4
2015/3/23,,,15,,,
2014/10/9,,,10,17,1,9
2014/10/11,,,16,2,,
2014/10/12,,,20,10,1,13
2014/10/21,,,12,11,4,
2014/10/25,,,14,16,2,4
2014/11/19,,,,5,2,
2014/12/23,,,25,4,3,2
2014/7/22,,,14,4,,1
2014/7/28,,,15,5,1,2
2014/8/8,,,3,19,,8
2014/9/14,,,30,18,1,6
2014/6/10,,,40,27,,4
2014/6/27,,,39,8,,
2014/3/11,,,26,34,10,7
2014/3/22,,,34,29,2,6
2014/3/23,,,25,14,2,5
2014/3/28,,,20,20,1,8
2020/10/3,,,,13,,4
2020/10/4,,,,16,,4
2020/10/5,,,,21,,6
2020/10/6,,,,24,,8
2020/10/7,,,,23,,7
2019/9/14,,,,17,,4
2019/6/18,,,,17,,4
2019/6/19,,,,14,,4
2015/7/23,,,,9,4,
2015/4/25,,,,12,,
2015/4/26,,,,25,,7
2015/4/27,,,,25,,9
2015/4/30,,,,15,7,5
2014/7/15,,,,27,1,6
2014/7/29,,,,26,,9
2014/8/9,,,,19,,9
2014/8/10,,,,26,,9
2014/8/16,,,,8,,7
2014/3/8,,,,21,,5
2014/3/29,,,,28,,7
2015/7/20,,,,,,